LON,LAT,VAL
-180,87.5,21
-175,87.5,21
-170,87.5,21
-165,87.5,21
-160,87.5,21
-155,87.5,21
-150,87.5,21
-145,87.5,21
-140,87.5,21
-135,87.5,22
-130,87.5,22
-125,87.5,22
-120,87.5,22
-115,87.5,22
-110,87.5,22
-105,87.5,23
-100,87.5,23
-95,87.5,23
-90,87.5,23
-85,87.5,23
-80,87.5,23
-75,87.5,23
-70,87.5,23
-65,87.5,24
-60,87.5,24
-55,87.5,24
-50,87.5,25
-45,87.5,25
-40,87.5,24
-35,87.5,24
-30,87.5,24
-25,87.5,24
-20,87.5,23
-15,87.5,23
-10,87.5,23
-5,87.5,23
0,87.5,23
5,87.5,23
10,87.5,23
15,87.5,23
20,87.5,22
25,87.5,22
30,87.5,22
35,87.5,22
40,87.5,22
45,87.5,22
50,87.5,22
55,87.5,21
60,87.5,21
65,87.5,21
70,87.5,21
75,87.5,21
80,87.5,21
85,87.5,20
90,87.5,20
95,87.5,20
100,87.5,20
105,87.5,20
110,87.5,20
115,87.5,20
120,87.5,20
125,87.5,20
130,87.5,20
135,87.5,20
140,87.5,20
145,87.5,20
150,87.5,20
155,87.5,20
160,87.5,20
165,87.5,21
170,87.5,21
175,87.5,21
180,87.5,21
-180,85,22
-175,85,22
-170,85,22
-165,85,22
-160,85,22
-155,85,22
-150,85,23
-145,85,23
-140,85,24
-135,85,24
-130,85,24
-125,85,25
-120,85,25
-115,85,25
-110,85,26
-105,85,26
-100,85,26
-95,85,26
-90,85,26
-85,85,26
-80,85,26
-75,85,26
-70,85,26
-65,85,27
-60,85,27
-55,85,27
-50,85,27
-45,85,27
-40,85,26
-35,85,26
-30,85,25
-25,85,25
-20,85,24
-15,85,23
-10,85,23
-5,85,23
0,85,23
5,85,22
10,85,22
15,85,22
20,85,22
25,85,22
30,85,22
35,85,22
40,85,21
45,85,21
50,85,21
55,85,21
60,85,21
65,85,21
70,85,21
75,85,21
80,85,21
85,85,21
90,85,21
95,85,20
100,85,20
105,85,20
110,85,20
115,85,20
120,85,20
125,85,21
130,85,20
135,85,21
140,85,21
145,85,21
150,85,21
155,85,21
160,85,21
165,85,21
170,85,21
175,85,21
180,85,22
-180,82.5,21
-175,82.5,21
-170,82.5,21
-165,82.5,21
-160,82.5,21
-155,82.5,22
-150,82.5,22
-145,82.5,23
-140,82.5,24
-135,82.5,25
-130,82.5,26
-125,82.5,27
-120,82.5,28
-115,82.5,28
-110,82.5,29
-105,82.5,30
-100,82.5,30
-95,82.5,30
-90,82.5,30
-85,82.5,30
-80,82.5,30
-75,82.5,30
-70,82.5,30
-65,82.5,30
-60,82.5,30
-55,82.5,30
-50,82.5,30
-45,82.5,29
-40,82.5,30
-35,82.5,30
-30,82.5,29
-25,82.5,29
-20,82.5,28
-15,82.5,28
-10,82.5,27
-5,82.5,26
0,82.5,26
5,82.5,25
10,82.5,24
15,82.5,23
20,82.5,23
25,82.5,22
30,82.5,22
35,82.5,21
40,82.5,21
45,82.5,20
50,82.5,21
55,82.5,21
60,82.5,20
65,82.5,21
70,82.5,20
75,82.5,21
80,82.5,21
85,82.5,21
90,82.5,21
95,82.5,21
100,82.5,21
105,82.5,21
110,82.5,21
115,82.5,21
120,82.5,22
125,82.5,22
130,82.5,22
135,82.5,22
140,82.5,22
145,82.5,22
150,82.5,21
155,82.5,21
160,82.5,21
165,82.5,21
170,82.5,21
175,82.5,21
180,82.5,21
-180,80,18
-175,80,18
-170,80,19
-165,80,20
-160,80,20
-155,80,21
-150,80,22
-145,80,23
-140,80,24
-135,80,26
-130,80,26
-125,80,28
-120,80,29
-115,80,30
-110,80,31
-105,80,32
-100,80,33
-95,80,34
-90,80,34
-85,80,35
-80,80,35
-75,80,33
-70,80,33
-65,80,32
-60,80,32
-55,80,33
-50,80,32
-45,80,32
-40,80,32
-35,80,32
-30,80,32
-25,80,31
-20,80,31
-15,80,30
-10,80,29
-5,80,28
0,80,27
5,80,26
10,80,24
15,80,23
20,80,22
25,80,21
30,80,21
35,80,20
40,80,19
45,80,19
50,80,19
55,80,19
60,80,19
65,80,19
70,80,19
75,80,20
80,80,20
85,80,20
90,80,22
95,80,22
100,80,22
105,80,23
110,80,22
115,80,23
120,80,23
125,80,24
130,80,23
135,80,23
140,80,23
145,80,23
150,80,22
155,80,21
160,80,20
165,80,19
170,80,19
175,80,19
180,80,18
-180,77.5,17
-175,77.5,17
-170,77.5,18
-165,77.5,18
-160,77.5,19
-155,77.5,20
-150,77.5,21
-145,77.5,22
-140,77.5,24
-135,77.5,25
-130,77.5,26
-125,77.5,28
-120,77.5,29
-115,77.5,30
-110,77.5,32
-105,77.5,33
-100,77.5,34
-95,77.5,35
-90,77.5,35
-85,77.5,34
-80,77.5,34
-75,77.5,35
-70,77.5,35
-65,77.5,35
-60,77.5,35
-55,77.5,36
-50,77.5,35
-45,77.5,35
-40,77.5,36
-35,77.5,36
-30,77.5,36
-25,77.5,35
-20,77.5,35
-15,77.5,33
-10,77.5,32
-5,77.5,30
0,77.5,29
5,77.5,27
10,77.5,26
15,77.5,24
20,77.5,22
25,77.5,21
30,77.5,19
35,77.5,18
40,77.5,18
45,77.5,17
50,77.5,17
55,77.5,17
60,77.5,17
65,77.5,18
70,77.5,18
75,77.5,18
80,77.5,19
85,77.5,19
90,77.5,20
95,77.5,21
100,77.5,22
105,77.5,23
110,77.5,23
115,77.5,24
120,77.5,24
125,77.5,25
130,77.5,25
135,77.5,25
140,77.5,24
145,77.5,23
150,77.5,22
155,77.5,20
160,77.5,18
165,77.5,18
170,77.5,17
175,77.5,17
180,77.5,17
-180,75,15
-175,75,16
-170,75,16
-165,75,16
-160,75,18
-155,75,18
-150,75,20
-145,75,21
-140,75,22
-135,75,24
-130,75,26
-125,75,27
-120,75,29
-115,75,31
-110,75,32
-105,75,33
-100,75,34
-95,75,35
-90,75,36
-85,75,38
-80,75,37
-75,75,38
-70,75,39
-65,75,39
-60,75,39
-55,75,39
-50,75,41
-45,75,41
-40,75,40
-35,75,40
-30,75,40
-25,75,40
-20,75,39
-15,75,38
-10,75,37
-5,75,35
0,75,32
5,75,30
10,75,28
15,75,26
20,75,23
25,75,21
30,75,19
35,75,18
40,75,17
45,75,16
50,75,16
55,75,15
60,75,16
65,75,16
70,75,17
75,75,17
80,75,17
85,75,17
90,75,18
95,75,18
100,75,20
105,75,21
110,75,22
115,75,23
120,75,24
125,75,24
130,75,25
135,75,24
140,75,24
145,75,23
150,75,22
155,75,19
160,75,17
165,75,16
170,75,16
175,75,15
180,75,15
-180,72.5,14
-175,72.5,14
-170,72.5,14
-165,72.5,15
-160,72.5,16
-155,72.5,16
-150,72.5,18
-145,72.5,19
-140,72.5,20
-135,72.5,22
-130,72.5,24
-125,72.5,25
-120,72.5,27
-115,72.5,29
-110,72.5,31
-105,72.5,32
-100,72.5,34
-95,72.5,36
-90,72.5,37
-85,72.5,37
-80,72.5,39
-75,72.5,40
-70,72.5,42
-65,72.5,42
-60,72.5,43
-55,72.5,43
-50,72.5,45
-45,72.5,46
-40,72.5,47
-35,72.5,46
-30,72.5,45
-25,72.5,45
-20,72.5,44
-15,72.5,43
-10,72.5,42
-5,72.5,40
0,72.5,37
5,72.5,34
10,72.5,31
15,72.5,29
20,72.5,25
25,72.5,23
30,72.5,20
35,72.5,18
40,72.5,17
45,72.5,16
50,72.5,16
55,72.5,15
60,72.5,16
65,72.5,16
70,72.5,16
75,72.5,15
80,72.5,15
85,72.5,15
90,72.5,15
95,72.5,16
100,72.5,17
105,72.5,19
110,72.5,20
115,72.5,21
120,72.5,23
125,72.5,24
130,72.5,25
135,72.5,24
140,72.5,24
145,72.5,23
150,72.5,21
155,72.5,19
160,72.5,17
165,72.5,16
170,72.5,15
175,72.5,14
180,72.5,14
-180,70,13
-175,70,14
-170,70,14
-165,70,14
-160,70,14
-155,70,15
-150,70,15
-145,70,16
-140,70,17
-135,70,18
-130,70,20
-125,70,22
-120,70,24
-115,70,26
-110,70,28
-105,70,30
-100,70,32
-95,70,34
-90,70,36
-85,70,38
-80,70,40
-75,70,42
-70,70,45
-65,70,46
-60,70,47
-55,70,48
-50,70,49
-45,70,50
-40,70,52
-35,70,52
-30,70,51
-25,70,50
-20,70,49
-15,70,48
-10,70,46
-5,70,45
0,70,42
5,70,38
10,70,35
15,70,32
20,70,29
25,70,26
30,70,23
35,70,21
40,70,20
45,70,18
50,70,18
55,70,17
60,70,16
65,70,17
70,70,17
75,70,16
80,70,14
85,70,14
90,70,15
95,70,15
100,70,16
105,70,17
110,70,19
115,70,20
120,70,22
125,70,23
130,70,24
135,70,24
140,70,24
145,70,22
150,70,21
155,70,19
160,70,17
165,70,15
170,70,14
175,70,14
180,70,13
-180,67.5,15
-175,67.5,15
-170,67.5,15
-165,67.5,15
-160,67.5,15
-155,67.5,14
-150,67.5,15
-145,67.5,15
-140,67.5,15
-135,67.5,15
-130,67.5,16
-125,67.5,18
-120,67.5,19
-115,67.5,22
-110,67.5,24
-105,67.5,26
-100,67.5,29
-95,67.5,31
-90,67.5,34
-85,67.5,37
-80,67.5,40
-75,67.5,44
-70,67.5,47
-65,67.5,49
-60,67.5,51
-55,67.5,52
-50,67.5,53
-45,67.5,54
-40,67.5,55
-35,67.5,56
-30,67.5,56
-25,67.5,56
-20,67.5,54
-15,67.5,53
-10,67.5,52
-5,67.5,49
0,67.5,47
5,67.5,43
10,67.5,40
15,67.5,36
20,67.5,33
25,67.5,29
30,67.5,27
35,67.5,25
40,67.5,23
45,67.5,22
50,67.5,22
55,67.5,21
60,67.5,20
65,67.5,19
70,67.5,18
75,67.5,17
80,67.5,15
85,67.5,15
90,67.5,14
95,67.5,15
100,67.5,15
105,67.5,17
110,67.5,19
115,67.5,20
120,67.5,22
125,67.5,23
130,67.5,24
135,67.5,25
140,67.5,25
145,67.5,24
150,67.5,23
155,67.5,21
160,67.5,19
165,67.5,17
170,67.5,16
175,67.5,15
180,67.5,15
-180,65,19
-175,65,19
-170,65,18
-165,65,18
-160,65,17
-155,65,16
-150,65,15
-145,65,14
-140,65,13
-135,65,13
-130,65,13
-125,65,14
-120,65,15
-115,65,18
-110,65,20
-105,65,22
-100,65,25
-95,65,28
-90,65,31
-85,65,36
-80,65,40
-75,65,44
-70,65,48
-65,65,51
-60,65,54
-55,65,56
-50,65,58
-45,65,58
-40,65,59
-35,65,60
-30,65,59
-25,65,59
-20,65,59
-15,65,58
-10,65,56
-5,65,53
0,65,51
5,65,47
10,65,44
15,65,40
20,65,36
25,65,34
30,65,31
35,65,29
40,65,28
45,65,27
50,65,27
55,65,25
60,65,24
65,65,22
70,65,21
75,65,19
80,65,17
85,65,16
90,65,16
95,65,16
100,65,16
105,65,18
110,65,19
115,65,20
120,65,23
125,65,25
130,65,26
135,65,27
140,65,28
145,65,27
150,65,26
155,65,24
160,65,22
165,65,21
170,65,20
175,65,20
180,65,19
-180,62.5,25
-175,62.5,25
-170,62.5,24
-165,62.5,23
-160,62.5,22
-155,62.5,20
-150,62.5,18
-145,62.5,16
-140,62.5,14
-135,62.5,12
-130,62.5,12
-125,62.5,12
-120,62.5,12
-115,62.5,14
-110,62.5,16
-105,62.5,19
-100,62.5,22
-95,62.5,25
-90,62.5,30
-85,62.5,34
-80,62.5,39
-75,62.5,44
-70,62.5,49
-65,62.5,52
-60,62.5,56
-55,62.5,59
-50,62.5,61
-45,62.5,62
-40,62.5,63
-35,62.5,62
-30,62.5,62
-25,62.5,62
-20,62.5,62
-15,62.5,62
-10,62.5,60
-5,62.5,58
0,62.5,55
5,62.5,51
10,62.5,48
15,62.5,44
20,62.5,41
25,62.5,38
30,62.5,36
35,62.5,34
40,62.5,34
45,62.5,33
50,62.5,32
55,62.5,31
60,62.5,29
65,62.5,27
70,62.5,25
75,62.5,22
80,62.5,20
85,62.5,19
90,62.5,19
95,62.5,19
100,62.5,18
105,62.5,19
110,62.5,20
115,62.5,22
120,62.5,25
125,62.5,28
130,62.5,29
135,62.5,30
140,62.5,31
145,62.5,31
150,62.5,30
155,62.5,30
160,62.5,28
165,62.5,27
170,62.5,25
175,62.5,25
180,62.5,25
-180,60,33
-175,60,32
-170,60,31
-165,60,30
-160,60,28
-155,60,26
-150,60,24
-145,60,20
-140,60,17
-135,60,14
-130,60,13
-125,60,12
-120,60,11
-115,60,12
-110,60,14
-105,60,17
-100,60,20
-95,60,25
-90,60,30
-85,60,35
-80,60,40
-75,60,45
-70,60,50
-65,60,53
-60,60,58
-55,60,61
-50,60,63
-45,60,65
-40,60,66
-35,60,66
-30,60,65
-25,60,66
-20,60,66
-15,60,65
-10,60,63
-5,60,61
0,60,58
5,60,55
10,60,52
15,60,49
20,60,46
25,60,44
30,60,42
35,60,41
40,60,40
45,60,40
50,60,39
55,60,36
60,60,35
65,60,32
70,60,29
75,60,26
80,60,23
85,60,21
90,60,21
95,60,21
100,60,21
105,60,21
110,60,24
115,60,26
120,60,30
125,60,32
130,60,33
135,60,35
140,60,36
145,60,36
150,60,36
155,60,36
160,60,35
165,60,33
170,60,32
175,60,32
180,60,33
-180,57.5,42
-175,57.5,41
-170,57.5,40
-165,57.5,39
-160,57.5,37
-155,57.5,35
-150,57.5,31
-145,57.5,28
-140,57.5,24
-135,57.5,20
-130,57.5,17
-125,57.5,14
-120,57.5,13
-115,57.5,14
-110,57.5,16
-105,57.5,18
-100,57.5,22
-95,57.5,27
-90,57.5,31
-85,57.5,36
-80,57.5,41
-75,57.5,46
-70,57.5,50
-65,57.5,55
-60,57.5,60
-55,57.5,63
-50,57.5,66
-45,57.5,68
-40,57.5,69
-35,57.5,70
-30,57.5,70
-25,57.5,70
-20,57.5,69
-15,57.5,68
-10,57.5,66
-5,57.5,64
0,57.5,62
5,57.5,59
10,57.5,57
15,57.5,55
20,57.5,53
25,57.5,51
30,57.5,50
35,57.5,48
40,57.5,47
45,57.5,46
50,57.5,45
55,57.5,43
60,57.5,40
65,57.5,36
70,57.5,33
75,57.5,29
80,57.5,26
85,57.5,25
90,57.5,24
95,57.5,24
100,57.5,25
105,57.5,26
110,57.5,29
115,57.5,32
120,57.5,35
125,57.5,37
130,57.5,39
135,57.5,42
140,57.5,43
145,57.5,45
150,57.5,45
155,57.5,44
160,57.5,43
165,57.5,41
170,57.5,41
175,57.5,41
180,57.5,42
-180,55,50
-175,55,51
-170,55,51
-165,55,50
-160,55,47
-155,55,45
-150,55,42
-145,55,39
-140,55,34
-135,55,28
-130,55,23
-125,55,20
-120,55,18
-115,55,18
-110,55,20
-105,55,23
-100,55,27
-95,55,31
-90,55,35
-85,55,39
-80,55,44
-75,55,47
-70,55,51
-65,55,56
-60,55,61
-55,55,65
-50,55,69
-45,55,71
-40,55,73
-35,55,74
-30,55,74
-25,55,74
-20,55,72
-15,55,71
-10,55,69
-5,55,68
0,55,66
5,55,64
10,55,63
15,55,62
20,55,61
25,55,60
30,55,58
35,55,56
40,55,54
45,55,52
50,55,51
55,55,48
60,55,45
65,55,42
70,55,39
75,55,34
80,55,32
85,55,31
90,55,31
95,55,31
100,55,32
105,55,33
110,55,35
115,55,38
120,55,41
125,55,43
130,55,46
135,55,49
140,55,51
145,55,53
150,55,53
155,55,53
160,55,51
165,55,50
170,55,49
175,55,49
180,55,50
-180,52.5,59
-175,52.5,60
-170,52.5,60
-165,52.5,59
-160,52.5,57
-155,52.5,55
-150,52.5,53
-145,52.5,50
-140,52.5,45
-135,52.5,39
-130,52.5,33
-125,52.5,28
-120,52.5,26
-115,52.5,25
-110,52.5,27
-105,52.5,30
-100,52.5,34
-95,52.5,38
-90,52.5,42
-85,52.5,45
-80,52.5,48
-75,52.5,50
-70,52.5,53
-65,52.5,58
-60,52.5,63
-55,52.5,69
-50,52.5,72
-45,52.5,76
-40,52.5,77
-35,52.5,79
-30,52.5,79
-25,52.5,79
-20,52.5,77
-15,52.5,75
-10,52.5,73
-5,52.5,72
0,52.5,71
5,52.5,70
10,52.5,70
15,52.5,71
20,52.5,70
25,52.5,70
30,52.5,68
35,52.5,65
40,52.5,62
45,52.5,60
50,52.5,57
55,52.5,53
60,52.5,50
65,52.5,48
70,52.5,45
75,52.5,42
80,52.5,40
85,52.5,39
90,52.5,39
95,52.5,40
100,52.5,40
105,52.5,41
110,52.5,43
115,52.5,45
120,52.5,48
125,52.5,51
130,52.5,53
135,52.5,56
140,52.5,59
145,52.5,60
150,52.5,60
155,52.5,60
160,52.5,60
165,52.5,58
170,52.5,57
175,52.5,58
180,52.5,59
-180,50,65
-175,50,66
-170,50,67
-165,50,67
-160,50,66
-155,50,65
-150,50,64
-145,50,62
-140,50,57
-135,50,50
-130,50,43
-125,50,38
-120,50,35
-115,50,34
-110,50,36
-105,50,39
-100,50,42
-95,50,47
-90,50,50
-85,50,52
-80,50,53
-75,50,54
-70,50,57
-65,50,61
-60,50,66
-55,50,72
-50,50,77
-45,50,81
-40,50,83
-35,50,84
-30,50,84
-25,50,83
-20,50,81
-15,50,79
-10,50,77
-5,50,76
0,50,76
5,50,77
10,50,79
15,50,81
20,50,82
25,50,82
30,50,79
35,50,75
40,50,71
45,50,67
50,50,63
55,50,59
60,50,56
65,50,54
70,50,52
75,50,49
80,50,48
85,50,47
90,50,47
95,50,47
100,50,47
105,50,48
110,50,50
115,50,52
120,50,55
125,50,57
130,50,60
135,50,63
140,50,65
145,50,67
150,50,67
155,50,67
160,50,65
165,50,64
170,50,63
175,50,64
180,50,65
-180,47.5,68
-175,47.5,69
-170,47.5,70
-165,47.5,71
-160,47.5,72
-155,47.5,72
-150,47.5,72
-145,47.5,70
-140,47.5,66
-135,47.5,60
-130,47.5,54
-125,47.5,48
-120,47.5,44
-115,47.5,44
-110,47.5,45
-105,47.5,48
-100,47.5,52
-95,47.5,55
-90,47.5,58
-85,47.5,59
-80,47.5,60
-75,47.5,60
-70,47.5,62
-65,47.5,66
-60,47.5,71
-55,47.5,77
-50,47.5,82
-45,47.5,86
-40,47.5,88
-35,47.5,89
-30,47.5,89
-25,47.5,86
-20,47.5,84
-15,47.5,83
-10,47.5,82
-5,47.5,82
0,47.5,83
5,47.5,85
10,47.5,89
15,47.5,92
20,47.5,94
25,47.5,94
30,47.5,92
35,47.5,86
40,47.5,81
45,47.5,75
50,47.5,70
55,47.5,66
60,47.5,62
65,47.5,60
70,47.5,59
75,47.5,58
80,47.5,56
85,47.5,55
90,47.5,54
95,47.5,54
100,47.5,54
105,47.5,54
110,47.5,55
115,47.5,57
120,47.5,59
125,47.5,62
130,47.5,65
135,47.5,68
140,47.5,70
145,47.5,73
150,47.5,73
155,47.5,72
160,47.5,70
165,47.5,68
170,47.5,66
175,47.5,67
180,47.5,68
-180,45,68
-175,45,69
-170,45,70
-165,45,72
-160,45,73
-155,45,75
-150,45,77
-145,45,77
-140,45,74
-135,45,68
-130,45,63
-125,45,57
-120,45,53
-115,45,52
-110,45,53
-105,45,57
-100,45,60
-95,45,63
-90,45,65
-85,45,67
-80,45,67
-75,45,67
-70,45,69
-65,45,71
-60,45,76
-55,45,82
-50,45,87
-45,45,91
-40,45,93
-35,45,94
-30,45,92
-25,45,90
-20,45,88
-15,45,87
-10,45,87
-5,45,88
0,45,91
5,45,94
10,45,99
15,45,103
20,45,107
25,45,107
30,45,104
35,45,98
40,45,91
45,45,85
50,45,77
55,45,72
60,45,68
65,45,66
70,45,66
75,45,64
80,45,64
85,45,63
90,45,62
95,45,61
100,45,60
105,45,59
110,45,59
115,45,60
120,45,62
125,45,65
130,45,68
135,45,71
140,45,74
145,45,77
150,45,77
155,45,76
160,45,72
165,45,69
170,45,67
175,45,67
180,45,68
-180,42.5,67
-175,42.5,68
-170,42.5,69
-165,42.5,70
-160,42.5,71
-155,42.5,73
-150,42.5,77
-145,42.5,78
-140,42.5,77
-135,42.5,74
-130,42.5,70
-125,42.5,64
-120,42.5,60
-115,42.5,59
-110,42.5,61
-105,42.5,64
-100,42.5,67
-95,42.5,70
-90,42.5,73
-85,42.5,74
-80,42.5,75
-75,42.5,75
-70,42.5,76
-65,42.5,78
-60,42.5,82
-55,42.5,88
-50,42.5,93
-45,42.5,96
-40,42.5,97
-35,42.5,96
-30,42.5,94
-25,42.5,92
-20,42.5,92
-15,42.5,92
-10,42.5,93
-5,42.5,96
0,42.5,100
5,42.5,104
10,42.5,110
15,42.5,114
20,42.5,118
25,42.5,118
30,42.5,115
35,42.5,109
40,42.5,101
45,42.5,93
50,42.5,85
55,42.5,79
60,42.5,75
65,42.5,72
70,42.5,71
75,42.5,70
80,42.5,70
85,42.5,69
90,42.5,69
95,42.5,66
100,42.5,64
105,42.5,63
110,42.5,62
115,42.5,62
120,42.5,63
125,42.5,65
130,42.5,69
135,42.5,72
140,42.5,76
145,42.5,79
150,42.5,79
155,42.5,77
160,42.5,73
165,42.5,70
170,42.5,67
175,42.5,66
180,42.5,67
-180,40,64
-175,40,65
-170,40,66
-165,40,67
-160,40,67
-155,40,69
-150,40,73
-145,40,76
-140,40,78
-135,40,77
-130,40,73
-125,40,69
-120,40,66
-115,40,64
-110,40,66
-105,40,69
-100,40,72
-95,40,76
-90,40,78
-85,40,81
-80,40,82
-75,40,83
-70,40,84
-65,40,85
-60,40,88
-55,40,92
-50,40,96
-45,40,99
-40,40,99
-35,40,98
-30,40,96
-25,40,95
-20,40,96
-15,40,98
-10,40,101
-5,40,106
0,40,111
5,40,116
10,40,121
15,40,125
20,40,127
25,40,128
30,40,124
35,40,118
40,40,110
45,40,100
50,40,93
55,40,86
60,40,81
65,40,77
70,40,75
75,40,73
80,40,73
85,40,72
90,40,72
95,40,70
100,40,67
105,40,65
110,40,64
115,40,64
120,40,65
125,40,66
130,40,69
135,40,71
140,40,75
145,40,77
150,40,78
155,40,75
160,40,72
165,40,69
170,40,65
175,40,64
180,40,64
-180,37.5,61
-175,37.5,62
-170,37.5,62
-165,37.5,62
-160,37.5,61
-155,37.5,63
-150,37.5,67
-145,37.5,71
-140,37.5,75
-135,37.5,77
-130,37.5,75
-125,37.5,71
-120,37.5,69
-115,37.5,69
-110,37.5,71
-105,37.5,74
-100,37.5,77
-95,37.5,80
-90,37.5,82
-85,37.5,86
-80,37.5,87
-75,37.5,89
-70,37.5,90
-65,37.5,91
-60,37.5,93
-55,37.5,96
-50,37.5,99
-45,37.5,101
-40,37.5,100
-35,37.5,100
-30,37.5,100
-25,37.5,100
-20,37.5,103
-15,37.5,107
-10,37.5,112
-5,37.5,118
0,37.5,123
5,37.5,128
10,37.5,131
15,37.5,134
20,37.5,136
25,37.5,135
30,37.5,132
35,37.5,125
40,37.5,116
45,37.5,106
50,37.5,98
55,37.5,91
60,37.5,84
65,37.5,80
70,37.5,77
75,37.5,75
80,37.5,74
85,37.5,74
90,37.5,73
95,37.5,70
100,37.5,68
105,37.5,66
110,37.5,66
115,37.5,65
120,37.5,66
125,37.5,66
130,37.5,68
135,37.5,71
140,37.5,74
145,37.5,75
150,37.5,75
155,37.5,72
160,37.5,69
165,37.5,65
170,37.5,62
175,37.5,61
180,37.5,61
-180,35,57
-175,35,57
-170,35,57
-165,35,56
-160,35,56
-155,35,57
-150,35,60
-145,35,66
-140,35,71
-135,35,74
-130,35,74
-125,35,72
-120,35,70
-115,35,71
-110,35,75
-105,35,78
-100,35,81
-95,35,85
-90,35,87
-85,35,90
-80,35,92
-75,35,94
-70,35,95
-65,35,96
-60,35,97
-55,35,99
-50,35,102
-45,35,103
-40,35,103
-35,35,103
-30,35,105
-25,35,107
-20,35,113
-15,35,119
-10,35,126
-5,35,132
0,35,138
5,35,141
10,35,143
15,35,144
20,35,144
25,35,142
30,35,136
35,35,129
40,35,120
45,35,111
50,35,103
55,35,94
60,35,86
65,35,81
70,35,77
75,35,74
80,35,73
85,35,73
90,35,72
95,35,71
100,35,68
105,35,68
110,35,66
115,35,66
120,35,66
125,35,67
130,35,68
135,35,70
140,35,72
145,35,73
150,35,72
155,35,69
160,35,65
165,35,61
170,35,59
175,35,58
180,35,57
-180,32.5,54
-175,32.5,54
-170,32.5,53
-165,32.5,52
-160,32.5,51
-155,32.5,52
-150,32.5,54
-145,32.5,59
-140,32.5,66
-135,32.5,70
-130,32.5,71
-125,32.5,71
-120,32.5,72
-115,32.5,74
-110,32.5,78
-105,32.5,83
-100,32.5,86
-95,32.5,89
-90,32.5,92
-85,32.5,94
-80,32.5,96
-75,32.5,99
-70,32.5,99
-65,32.5,99
-60,32.5,100
-55,32.5,102
-50,32.5,104
-45,32.5,105
-40,32.5,106
-35,32.5,107
-30,32.5,112
-25,32.5,118
-20,32.5,125
-15,32.5,134
-10,32.5,142
-5,32.5,149
0,32.5,154
5,32.5,156
10,32.5,155
15,32.5,154
20,32.5,152
25,32.5,147
30,32.5,140
35,32.5,131
40,32.5,123
45,32.5,115
50,32.5,107
55,32.5,98
60,32.5,89
65,32.5,83
70,32.5,78
75,32.5,74
80,32.5,72
85,32.5,72
90,32.5,72
95,32.5,72
100,32.5,70
105,32.5,69
110,32.5,68
115,32.5,68
120,32.5,68
125,32.5,68
130,32.5,69
135,32.5,70
140,32.5,71
145,32.5,71
150,32.5,69
155,32.5,67
160,32.5,62
165,32.5,59
170,32.5,56
175,32.5,55
180,32.5,54
-180,30,54
-175,30,53
-170,30,51
-165,30,49
-160,30,48
-155,30,47
-150,30,50
-145,30,54
-140,30,61
-135,30,65
-130,30,67
-125,30,69
-120,30,71
-115,30,76
-110,30,82
-105,30,87
-100,30,90
-95,30,93
-90,30,96
-85,30,98
-80,30,100
-75,30,101
-70,30,102
-65,30,102
-60,30,103
-55,30,105
-50,30,106
-45,30,108
-40,30,111
-35,30,115
-30,30,122
-25,30,131
-20,30,141
-15,30,152
-10,30,160
-5,30,167
0,30,172
5,30,172
10,30,170
15,30,166
20,30,161
25,30,153
30,30,146
35,30,135
40,30,126
45,30,119
50,30,111
55,30,103
60,30,94
65,30,87
70,30,80
75,30,75
80,30,73
85,30,73
90,30,73
95,30,74
100,30,73
105,30,72
110,30,71
115,30,70
120,30,70
125,30,71
130,30,71
135,30,71
140,30,70
145,30,69
150,30,67
155,30,64
160,30,60
165,30,57
170,30,55
175,30,54
180,30,54
-180,27.5,54
-175,27.5,54
-170,27.5,52
-165,27.5,50
-160,27.5,47
-155,27.5,45
-150,27.5,47
-145,27.5,50
-140,27.5,55
-135,27.5,59
-130,27.5,62
-125,27.5,65
-120,27.5,70
-115,27.5,77
-110,27.5,84
-105,27.5,91
-100,27.5,95
-95,27.5,98
-90,27.5,100
-85,27.5,101
-80,27.5,102
-75,27.5,103
-70,27.5,103
-65,27.5,103
-60,27.5,104
-55,27.5,107
-50,27.5,109
-45,27.5,112
-40,27.5,118
-35,27.5,126
-30,27.5,136
-25,27.5,148
-20,27.5,160
-15,27.5,172
-10,27.5,180
-5,27.5,188
0,27.5,190
5,27.5,189
10,27.5,187
15,27.5,181
20,27.5,173
25,27.5,164
30,27.5,153
35,27.5,142
40,27.5,134
45,27.5,127
50,27.5,120
55,27.5,111
60,27.5,102
65,27.5,93
70,27.5,86
75,27.5,80
80,27.5,76
85,27.5,75
90,27.5,76
95,27.5,77
100,27.5,76
105,27.5,75
110,27.5,74
115,27.5,73
120,27.5,73
125,27.5,73
130,27.5,73
135,27.5,73
140,27.5,71
145,27.5,69
150,27.5,66
155,27.5,63
160,27.5,59
165,27.5,56
170,27.5,55
175,27.5,54
180,27.5,54
-180,25,55
-175,25,55
-170,25,54
-165,25,51
-160,25,47
-155,25,45
-150,25,46
-145,25,48
-140,25,51
-135,25,53
-130,25,57
-125,25,61
-120,25,68
-115,25,77
-110,25,87
-105,25,95
-100,25,100
-95,25,103
-90,25,104
-85,25,104
-80,25,104
-75,25,105
-70,25,106
-65,25,106
-60,25,106
-55,25,109
-50,25,113
-45,25,119
-40,25,127
-35,25,139
-30,25,154
-25,25,169
-20,25,181
-15,25,193
-10,25,202
-5,25,208
0,25,211
5,25,212
10,25,206
15,25,196
20,25,186
25,25,176
30,25,163
35,25,152
40,25,145
45,25,139
50,25,132
55,25,123
60,25,113
65,25,103
70,25,94
75,25,87
80,25,82
85,25,80
90,25,81
95,25,81
100,25,80
105,25,78
110,25,77
115,25,76
120,25,76
125,25,75
130,25,74
135,25,74
140,25,73
145,25,70
150,25,67
155,25,63
160,25,59
165,25,56
170,25,55
175,25,55
180,25,55
-180,22.5,56
-175,22.5,57
-170,22.5,56
-165,22.5,53
-160,22.5,50
-155,22.5,47
-150,22.5,46
-145,22.5,47
-140,22.5,48
-135,22.5,49
-130,22.5,52
-125,22.5,57
-120,22.5,65
-115,22.5,77
-110,22.5,88
-105,22.5,98
-100,22.5,104
-95,22.5,107
-90,22.5,107
-85,22.5,107
-80,22.5,106
-75,22.5,107
-70,22.5,107
-65,22.5,108
-60,22.5,109
-55,22.5,112
-50,22.5,117
-45,22.5,128
-40,22.5,140
-35,22.5,157
-30,22.5,174
-25,22.5,190
-20,22.5,204
-15,22.5,215
-10,22.5,222
-5,22.5,227
0,22.5,231
5,22.5,232
10,22.5,224
15,22.5,212
20,22.5,201
25,22.5,190
30,22.5,179
35,22.5,169
40,22.5,162
45,22.5,154
50,22.5,148
55,22.5,139
60,22.5,127
65,22.5,117
70,22.5,106
75,22.5,97
80,22.5,91
85,22.5,88
90,22.5,87
95,22.5,87
100,22.5,86
105,22.5,83
110,22.5,81
115,22.5,79
120,22.5,78
125,22.5,77
130,22.5,76
135,22.5,75
140,22.5,74
145,22.5,72
150,22.5,69
155,22.5,65
160,22.5,60
165,22.5,58
170,22.5,57
175,22.5,56
180,22.5,56
-180,20,59
-175,20,58
-170,20,57
-165,20,55
-160,20,52
-155,20,49
-150,20,48
-145,20,48
-140,20,47
-135,20,47
-130,20,49
-125,20,54
-120,20,63
-115,20,76
-110,20,90
-105,20,100
-100,20,107
-95,20,110
-90,20,111
-85,20,110
-80,20,110
-75,20,110
-70,20,110
-65,20,110
-60,20,113
-55,20,116
-50,20,124
-45,20,139
-40,20,157
-35,20,177
-30,20,197
-25,20,213
-20,20,225
-15,20,232
-10,20,239
-5,20,243
0,20,245
5,20,247
10,20,241
15,20,228
20,20,215
25,20,205
30,20,197
35,20,190
40,20,181
45,20,174
50,20,168
55,20,158
60,20,145
65,20,133
70,20,121
75,20,109
80,20,103
85,20,98
90,20,97
95,20,96
100,20,93
105,20,90
110,20,86
115,20,82
120,20,80
125,20,78
130,20,76
135,20,76
140,20,76
145,20,74
150,20,71
155,20,67
160,20,63
165,20,60
170,20,59
175,20,59
180,20,59
-180,17.5,60
-175,17.5,59
-170,17.5,58
-165,17.5,55
-160,17.5,52
-155,17.5,50
-150,17.5,48
-145,17.5,48
-140,17.5,47
-135,17.5,46
-130,17.5,48
-125,17.5,53
-120,17.5,63
-115,17.5,77
-110,17.5,91
-105,17.5,102
-100,17.5,109
-95,17.5,113
-90,17.5,114
-85,17.5,114
-80,17.5,113
-75,17.5,113
-70,17.5,114
-65,17.5,115
-60,17.5,117
-55,17.5,122
-50,17.5,132
-45,17.5,152
-40,17.5,175
-35,17.5,199
-30,17.5,220
-25,17.5,234
-20,17.5,243
-15,17.5,246
-10,17.5,250
-5,17.5,252
0,17.5,256
5,17.5,257
10,17.5,253
15,17.5,242
20,17.5,232
25,17.5,224
30,17.5,218
35,17.5,211
40,17.5,203
45,17.5,195
50,17.5,189
55,17.5,178
60,17.5,163
65,17.5,149
70,17.5,136
75,17.5,123
80,17.5,115
85,17.5,109
90,17.5,109
95,17.5,106
100,17.5,101
105,17.5,97
110,17.5,92
115,17.5,87
120,17.5,83
125,17.5,79
130,17.5,77
135,17.5,78
140,17.5,77
145,17.5,76
150,17.5,74
155,17.5,70
160,17.5,66
165,17.5,63
170,17.5,62
175,17.5,61
180,17.5,60
-180,15,62
-175,15,60
-170,15,58
-165,15,55
-160,15,51
-155,15,49
-150,15,48
-145,15,47
-140,15,47
-135,15,46
-130,15,47
-125,15,53
-120,15,64
-115,15,79
-110,15,93
-105,15,105
-100,15,112
-95,15,117
-90,15,118
-85,15,118
-80,15,117
-75,15,118
-70,15,118
-65,15,119
-60,15,123
-55,15,130
-50,15,142
-45,15,163
-40,15,191
-35,15,216
-30,15,237
-25,15,249
-20,15,252
-15,15,253
-10,15,253
-5,15,255
0,15,260
5,15,262
10,15,260
15,15,252
20,15,247
25,15,241
30,15,235
35,15,229
40,15,222
45,15,215
50,15,207
55,15,194
60,15,179
65,15,164
70,15,151
75,15,137
80,15,127
85,15,121
90,15,120
95,15,117
100,15,110
105,15,104
110,15,98
115,15,93
120,15,88
125,15,83
130,15,79
135,15,79
140,15,78
145,15,78
150,15,77
155,15,73
160,15,69
165,15,66
170,15,65
175,15,63
180,15,62
-180,12.5,63
-175,12.5,60
-170,12.5,57
-165,12.5,54
-160,12.5,49
-155,12.5,47
-150,12.5,46
-145,12.5,46
-140,12.5,46
-135,12.5,45
-130,12.5,47
-125,12.5,54
-120,12.5,66
-115,12.5,81
-110,12.5,95
-105,12.5,107
-100,12.5,116
-95,12.5,121
-90,12.5,123
-85,12.5,124
-80,12.5,123
-75,12.5,122
-70,12.5,123
-65,12.5,125
-60,12.5,130
-55,12.5,139
-50,12.5,151
-45,12.5,172
-40,12.5,202
-35,12.5,226
-30,12.5,245
-25,12.5,254
-20,12.5,253
-15,12.5,251
-10,12.5,250
-5,12.5,253
0,12.5,260
5,12.5,264
10,12.5,264
15,12.5,262
20,12.5,259
25,12.5,255
30,12.5,250
35,12.5,244
40,12.5,237
45,12.5,229
50,12.5,220
55,12.5,206
60,12.5,192
65,12.5,177
70,12.5,162
75,12.5,147
80,12.5,136
85,12.5,131
90,12.5,130
95,12.5,126
100,12.5,118
105,12.5,112
110,12.5,106
115,12.5,99
120,12.5,93
125,12.5,87
130,12.5,82
135,12.5,79
140,12.5,78
145,12.5,78
150,12.5,78
155,12.5,75
160,12.5,71
165,12.5,69
170,12.5,67
175,12.5,66
180,12.5,63
-180,10,63
-175,10,59
-170,10,55
-165,10,51
-160,10,47
-155,10,45
-150,10,45
-145,10,45
-140,10,45
-135,10,45
-130,10,48
-125,10,56
-120,10,68
-115,10,83
-110,10,98
-105,10,110
-100,10,120
-95,10,127
-90,10,129
-85,10,130
-80,10,129
-75,10,129
-70,10,129
-65,10,132
-60,10,138
-55,10,148
-50,10,162
-45,10,183
-40,10,208
-35,10,231
-30,10,246
-25,10,251
-20,10,249
-15,10,246
-10,10,245
-5,10,250
0,10,257
5,10,265
10,10,268
15,10,269
20,10,269
25,10,266
30,10,261
35,10,254
40,10,246
45,10,237
50,10,227
55,10,213
60,10,199
65,10,185
70,10,170
75,10,155
80,10,143
85,10,138
90,10,136
95,10,133
100,10,125
105,10,119
110,10,114
115,10,107
120,10,100
125,10,92
130,10,85
135,10,80
140,10,79
145,10,79
150,10,79
155,10,76
160,10,73
165,10,70
170,10,68
175,10,66
180,10,63
-180,7.5,60
-175,7.5,57
-170,7.5,53
-165,7.5,48
-160,7.5,45
-155,7.5,43
-150,7.5,43
-145,7.5,43
-140,7.5,43
-135,7.5,44
-130,7.5,48
-125,7.5,57
-120,7.5,70
-115,7.5,86
-110,7.5,101
-105,7.5,114
-100,7.5,125
-95,7.5,133
-90,7.5,137
-85,7.5,138
-80,7.5,137
-75,7.5,136
-70,7.5,135
-65,7.5,138
-60,7.5,146
-55,7.5,158
-50,7.5,173
-45,7.5,191
-40,7.5,212
-35,7.5,230
-30,7.5,242
-25,7.5,247
-20,7.5,245
-15,7.5,243
-10,7.5,243
-5,7.5,248
0,7.5,257
5,7.5,265
10,7.5,271
15,7.5,275
20,7.5,276
25,7.5,274
30,7.5,268
35,7.5,260
40,7.5,251
45,7.5,242
50,7.5,231
55,7.5,217
60,7.5,203
65,7.5,189
70,7.5,174
75,7.5,161
80,7.5,150
85,7.5,145
90,7.5,141
95,7.5,137
100,7.5,132
105,7.5,127
110,7.5,123
115,7.5,118
120,7.5,111
125,7.5,102
130,7.5,92
135,7.5,84
140,7.5,80
145,7.5,79
150,7.5,79
155,7.5,76
160,7.5,74
165,7.5,70
170,7.5,68
175,7.5,65
180,7.5,60
-180,5,58
-175,5,54
-170,5,50
-165,5,46
-160,5,42
-155,5,41
-150,5,41
-145,5,41
-140,5,42
-135,5,43
-130,5,48
-125,5,59
-120,5,71
-115,5,88
-110,5,103
-105,5,119
-100,5,131
-95,5,139
-90,5,145
-85,5,146
-80,5,145
-75,5,143
-70,5,142
-65,5,145
-60,5,154
-55,5,167
-50,5,184
-45,5,199
-40,5,215
-35,5,228
-30,5,238
-25,5,242
-20,5,243
-15,5,243
-10,5,245
-5,5,251
0,5,259
5,5,267
10,5,273
15,5,279
20,5,281
25,5,278
30,5,272
35,5,263
40,5,253
45,5,243
50,5,232
55,5,219
60,5,205
65,5,191
70,5,177
75,5,166
80,5,158
85,5,152
90,5,147
95,5,143
100,5,139
105,5,136
110,5,133
115,5,130
120,5,124
125,5,114
130,5,101
135,5,91
140,5,85
145,5,82
150,5,81
155,5,77
160,5,73
165,5,70
170,5,67
175,5,63
180,5,58
-180,2.5,57
-175,2.5,54
-170,2.5,49
-165,2.5,44
-160,2.5,41
-155,2.5,39
-150,2.5,39
-145,2.5,39
-140,2.5,40
-135,2.5,42
-130,2.5,48
-125,2.5,59
-120,2.5,74
-115,2.5,90
-110,2.5,107
-105,2.5,122
-100,2.5,135
-95,2.5,145
-90,2.5,152
-85,2.5,154
-80,2.5,154
-75,2.5,152
-70,2.5,151
-65,2.5,154
-60,2.5,163
-55,2.5,177
-50,2.5,193
-45,2.5,206
-40,2.5,217
-35,2.5,228
-30,2.5,236
-25,2.5,242
-20,2.5,245
-15,2.5,246
-10,2.5,250
-5,2.5,256
0,2.5,263
5,2.5,270
10,2.5,275
15,2.5,281
20,2.5,284
25,2.5,281
30,2.5,274
35,2.5,263
40,2.5,252
45,2.5,243
50,2.5,232
55,2.5,220
60,2.5,206
65,2.5,194
70,2.5,182
75,2.5,173
80,2.5,166
85,2.5,161
90,2.5,156
95,2.5,150
100,2.5,147
105,2.5,145
110,2.5,143
115,2.5,142
120,2.5,137
125,2.5,126
130,2.5,112
135,2.5,99
140,2.5,90
145,2.5,86
150,2.5,84
155,2.5,78
160,2.5,74
165,2.5,69
170,2.5,66
175,2.5,62
180,2.5,57
-180,0,58
-175,0,55
-170,0,50
-165,0,44
-160,0,40
-155,0,39
-150,0,38
-145,0,38
-140,0,38
-135,0,40
-130,0,46
-125,0,58
-120,0,74
-115,0,92
-110,0,109
-105,0,125
-100,0,140
-95,0,151
-90,0,158
-85,0,162
-80,0,162
-75,0,160
-70,0,160
-65,0,164
-60,0,173
-55,0,186
-50,0,201
-45,0,212
-40,0,220
-35,0,229
-30,0,237
-25,0,244
-20,0,250
-15,0,254
-10,0,258
-5,0,263
0,0,268
5,0,273
10,0,278
15,0,284
20,0,285
25,0,282
30,0,272
35,0,260
40,0,249
45,0,241
50,0,230
55,0,219
60,0,208
65,0,198
70,0,187
75,0,180
80,0,174
85,0,169
90,0,163
95,0,158
100,0,153
105,0,150
110,0,150
115,0,150
120,0,146
125,0,135
130,0,121
135,0,107
140,0,96
145,0,89
150,0,86
155,0,80
160,0,75
165,0,70
170,0,65
175,0,62
180,0,58
-180,-2.5,60
-175,-2.5,57
-170,-2.5,53
-165,-2.5,47
-160,-2.5,43
-155,-2.5,40
-150,-2.5,39
-145,-2.5,38
-140,-2.5,37
-135,-2.5,38
-130,-2.5,44
-125,-2.5,57
-120,-2.5,74
-115,-2.5,93
-110,-2.5,111
-105,-2.5,128
-100,-2.5,143
-95,-2.5,155
-90,-2.5,163
-85,-2.5,169
-80,-2.5,169
-75,-2.5,168
-70,-2.5,169
-65,-2.5,174
-60,-2.5,183
-55,-2.5,195
-50,-2.5,208
-45,-2.5,216
-40,-2.5,222
-35,-2.5,230
-30,-2.5,240
-25,-2.5,249
-20,-2.5,258
-15,-2.5,265
-10,-2.5,269
-5,-2.5,272
0,-2.5,274
5,-2.5,277
10,-2.5,280
15,-2.5,283
20,-2.5,282
25,-2.5,277
30,-2.5,266
35,-2.5,254
40,-2.5,244
45,-2.5,235
50,-2.5,227
55,-2.5,218
60,-2.5,211
65,-2.5,200
70,-2.5,192
75,-2.5,183
80,-2.5,179
85,-2.5,174
90,-2.5,169
95,-2.5,162
100,-2.5,155
105,-2.5,150
110,-2.5,150
115,-2.5,150
120,-2.5,149
125,-2.5,139
130,-2.5,125
135,-2.5,111
140,-2.5,100
145,-2.5,91
150,-2.5,88
155,-2.5,81
160,-2.5,76
165,-2.5,71
170,-2.5,67
175,-2.5,63
180,-2.5,60
-180,-5,63
-175,-5,60
-170,-5,56
-165,-5,51
-160,-5,47
-155,-5,43
-150,-5,41
-145,-5,40
-140,-5,38
-135,-5,38
-130,-5,44
-125,-5,57
-120,-5,75
-115,-5,94
-110,-5,112
-105,-5,129
-100,-5,144
-95,-5,156
-90,-5,166
-85,-5,173
-80,-5,175
-75,-5,174
-70,-5,177
-65,-5,184
-60,-5,192
-55,-5,202
-50,-5,211
-45,-5,217
-40,-5,223
-35,-5,231
-30,-5,243
-25,-5,255
-20,-5,267
-15,-5,274
-10,-5,278
-5,-5,280
0,-5,280
5,-5,279
10,-5,278
15,-5,278
20,-5,274
25,-5,267
30,-5,258
35,-5,248
40,-5,237
45,-5,229
50,-5,221
55,-5,214
60,-5,208
65,-5,200
70,-5,191
75,-5,183
80,-5,177
85,-5,174
90,-5,169
95,-5,159
100,-5,150
105,-5,144
110,-5,141
115,-5,144
120,-5,144
125,-5,137
130,-5,123
135,-5,111
140,-5,101
145,-5,93
150,-5,88
155,-5,81
160,-5,77
165,-5,73
170,-5,69
175,-5,66
180,-5,63
-180,-7.5,67
-175,-7.5,64
-170,-7.5,61
-165,-7.5,57
-160,-7.5,52
-155,-7.5,48
-150,-7.5,45
-145,-7.5,43
-140,-7.5,41
-135,-7.5,40
-130,-7.5,45
-125,-7.5,58
-120,-7.5,75
-115,-7.5,95
-110,-7.5,113
-105,-7.5,129
-100,-7.5,143
-95,-7.5,156
-90,-7.5,166
-85,-7.5,174
-80,-7.5,178
-75,-7.5,180
-70,-7.5,183
-65,-7.5,190
-60,-7.5,197
-55,-7.5,205
-50,-7.5,211
-45,-7.5,216
-40,-7.5,222
-35,-7.5,231
-30,-7.5,245
-25,-7.5,259
-20,-7.5,273
-15,-7.5,282
-10,-7.5,285
-5,-7.5,286
0,-7.5,284
5,-7.5,279
10,-7.5,274
15,-7.5,268
20,-7.5,261
25,-7.5,254
30,-7.5,248
35,-7.5,238
40,-7.5,229
45,-7.5,220
50,-7.5,213
55,-7.5,206
60,-7.5,201
65,-7.5,194
70,-7.5,183
75,-7.5,175
80,-7.5,168
85,-7.5,164
90,-7.5,159
95,-7.5,148
100,-7.5,138
105,-7.5,130
110,-7.5,128
115,-7.5,130
120,-7.5,130
125,-7.5,126
130,-7.5,117
135,-7.5,108
140,-7.5,99
145,-7.5,92
150,-7.5,87
155,-7.5,80
160,-7.5,77
165,-7.5,74
170,-7.5,72
175,-7.5,69
180,-7.5,67
-180,-10,70
-175,-10,68
-170,-10,66
-165,-10,61
-160,-10,57
-155,-10,53
-150,-10,50
-145,-10,48
-140,-10,46
-135,-10,45
-130,-10,50
-125,-10,62
-120,-10,79
-115,-10,97
-110,-10,114
-105,-10,128
-100,-10,141
-95,-10,155
-90,-10,166
-85,-10,174
-80,-10,179
-75,-10,183
-70,-10,187
-65,-10,193
-60,-10,199
-55,-10,204
-50,-10,209
-45,-10,214
-40,-10,220
-35,-10,231
-30,-10,245
-25,-10,261
-20,-10,276
-15,-10,285
-10,-10,288
-5,-10,288
0,-10,283
5,-10,276
10,-10,266
15,-10,257
20,-10,248
25,-10,241
30,-10,234
35,-10,226
40,-10,218
45,-10,209
50,-10,202
55,-10,196
60,-10,190
65,-10,181
70,-10,170
75,-10,160
80,-10,153
85,-10,148
90,-10,141
95,-10,129
100,-10,119
105,-10,111
110,-10,110
115,-10,111
120,-10,113
125,-10,113
130,-10,108
135,-10,102
140,-10,96
145,-10,89
150,-10,84
155,-10,79
160,-10,77
165,-10,75
170,-10,74
175,-10,72
180,-10,70
-180,-12.5,72
-175,-12.5,71
-170,-12.5,69
-165,-12.5,66
-160,-12.5,61
-155,-12.5,58
-150,-12.5,55
-145,-12.5,53
-140,-12.5,51
-135,-12.5,50
-130,-12.5,55
-125,-12.5,67
-120,-12.5,83
-115,-12.5,100
-110,-12.5,116
-105,-12.5,128
-100,-12.5,140
-95,-12.5,152
-90,-12.5,164
-85,-12.5,172
-80,-12.5,178
-75,-12.5,182
-70,-12.5,187
-65,-12.5,192
-60,-12.5,197
-55,-12.5,201
-50,-12.5,206
-45,-12.5,211
-40,-12.5,218
-35,-12.5,229
-30,-12.5,245
-25,-12.5,260
-20,-12.5,274
-15,-12.5,283
-10,-12.5,286
-5,-12.5,284
0,-12.5,279
5,-12.5,270
10,-12.5,257
15,-12.5,245
20,-12.5,236
25,-12.5,228
30,-12.5,221
35,-12.5,214
40,-12.5,206
45,-12.5,197
50,-12.5,190
55,-12.5,183
60,-12.5,175
65,-12.5,165
70,-12.5,154
75,-12.5,143
80,-12.5,136
85,-12.5,128
90,-12.5,120
95,-12.5,111
100,-12.5,99
105,-12.5,92
110,-12.5,90
115,-12.5,91
120,-12.5,95
125,-12.5,99
130,-12.5,97
135,-12.5,95
140,-12.5,92
145,-12.5,86
150,-12.5,82
155,-12.5,78
160,-12.5,76
165,-12.5,74
170,-12.5,73
175,-12.5,73
180,-12.5,72
-180,-15,71
-175,-15,70
-170,-15,69
-165,-15,68
-160,-15,65
-155,-15,61
-150,-15,58
-145,-15,56
-140,-15,55
-135,-15,56
-130,-15,61
-125,-15,73
-120,-15,88
-115,-15,104
-110,-15,117
-105,-15,128
-100,-15,137
-95,-15,148
-90,-15,159
-85,-15,168
-80,-15,175
-75,-15,179
-70,-15,183
-65,-15,188
-60,-15,192
-55,-15,196
-50,-15,200
-45,-15,206
-40,-15,213
-35,-15,225
-30,-15,241
-25,-15,256
-20,-15,269
-15,-15,276
-10,-15,278
-5,-15,275
0,-15,270
5,-15,260
10,-15,248
15,-15,235
20,-15,224
25,-15,217
30,-15,209
35,-15,201
40,-15,193
45,-15,185
50,-15,178
55,-15,169
60,-15,160
65,-15,149
70,-15,137
75,-15,126
80,-15,117
85,-15,110
90,-15,99
95,-15,90
100,-15,80
105,-15,75
110,-15,73
115,-15,75
120,-15,81
125,-15,87
130,-15,88
135,-15,89
140,-15,88
145,-15,84
150,-15,80
155,-15,76
160,-15,74
165,-15,73
170,-15,72
175,-15,72
180,-15,71
-180,-17.5,68
-175,-17.5,68
-170,-17.5,68
-165,-17.5,67
-160,-17.5,65
-155,-17.5,62
-150,-17.5,59
-145,-17.5,58
-140,-17.5,58
-135,-17.5,59
-130,-17.5,65
-125,-17.5,77
-120,-17.5,92
-115,-17.5,106
-110,-17.5,118
-105,-17.5,127
-100,-17.5,134
-95,-17.5,143
-90,-17.5,152
-85,-17.5,161
-80,-17.5,168
-75,-17.5,172
-70,-17.5,176
-65,-17.5,180
-60,-17.5,184
-55,-17.5,188
-50,-17.5,192
-45,-17.5,199
-40,-17.5,206
-35,-17.5,218
-30,-17.5,234
-25,-17.5,249
-20,-17.5,260
-15,-17.5,266
-10,-17.5,267
-5,-17.5,263
0,-17.5,258
5,-17.5,249
10,-17.5,237
15,-17.5,224
20,-17.5,212
25,-17.5,205
30,-17.5,197
35,-17.5,189
40,-17.5,181
45,-17.5,174
50,-17.5,167
55,-17.5,156
60,-17.5,147
65,-17.5,135
70,-17.5,123
75,-17.5,112
80,-17.5,102
85,-17.5,93
90,-17.5,83
95,-17.5,74
100,-17.5,66
105,-17.5,63
110,-17.5,63
115,-17.5,66
120,-17.5,72
125,-17.5,78
130,-17.5,82
135,-17.5,85
140,-17.5,85
145,-17.5,83
150,-17.5,79
155,-17.5,75
160,-17.5,73
165,-17.5,71
170,-17.5,70
175,-17.5,69
180,-17.5,68
-180,-20,65
-175,-20,65
-170,-20,64
-165,-20,64
-160,-20,62
-155,-20,59
-150,-20,57
-145,-20,56
-140,-20,57
-135,-20,61
-130,-20,68
-125,-20,79
-120,-20,94
-115,-20,106
-110,-20,116
-105,-20,124
-100,-20,130
-95,-20,137
-90,-20,145
-85,-20,153
-80,-20,159
-75,-20,163
-70,-20,166
-65,-20,169
-60,-20,173
-55,-20,178
-50,-20,183
-45,-20,190
-40,-20,198
-35,-20,210
-30,-20,224
-25,-20,237
-20,-20,247
-15,-20,252
-10,-20,252
-5,-20,249
0,-20,242
5,-20,234
10,-20,223
15,-20,211
20,-20,200
25,-20,192
30,-20,183
35,-20,176
40,-20,168
45,-20,160
50,-20,154
55,-20,145
60,-20,135
65,-20,123
70,-20,111
75,-20,100
80,-20,90
85,-20,80
90,-20,71
95,-20,63
100,-20,58
105,-20,56
110,-20,58
115,-20,60
120,-20,67
125,-20,73
130,-20,79
135,-20,83
140,-20,84
145,-20,83
150,-20,80
155,-20,76
160,-20,72
165,-20,70
170,-20,69
175,-20,67
180,-20,65
-180,-22.5,63
-175,-22.5,62
-170,-22.5,61
-165,-22.5,60
-160,-22.5,58
-155,-22.5,56
-150,-22.5,54
-145,-22.5,53
-140,-22.5,55
-135,-22.5,60
-130,-22.5,68
-125,-22.5,80
-120,-22.5,94
-115,-22.5,106
-110,-22.5,114
-105,-22.5,121
-100,-22.5,126
-95,-22.5,131
-90,-22.5,138
-85,-22.5,144
-80,-22.5,149
-75,-22.5,153
-70,-22.5,156
-65,-22.5,158
-60,-22.5,162
-55,-22.5,167
-50,-22.5,173
-45,-22.5,180
-40,-22.5,189
-35,-22.5,200
-30,-22.5,212
-25,-22.5,224
-20,-22.5,232
-15,-22.5,235
-10,-22.5,235
-5,-22.5,232
0,-22.5,225
5,-22.5,216
10,-22.5,206
15,-22.5,195
20,-22.5,186
25,-22.5,179
30,-22.5,171
35,-22.5,164
40,-22.5,155
45,-22.5,147
50,-22.5,141
55,-22.5,133
60,-22.5,124
65,-22.5,113
70,-22.5,102
75,-22.5,92
80,-22.5,83
85,-22.5,73
90,-22.5,64
95,-22.5,57
100,-22.5,53
105,-22.5,51
110,-22.5,53
115,-22.5,56
120,-22.5,62
125,-22.5,70
130,-22.5,76
135,-22.5,82
140,-22.5,85
145,-22.5,85
150,-22.5,82
155,-22.5,78
160,-22.5,73
165,-22.5,69
170,-22.5,67
175,-22.5,65
180,-22.5,63
-180,-25,63
-175,-25,60
-170,-25,59
-165,-25,57
-160,-25,55
-155,-25,53
-150,-25,51
-145,-25,50
-140,-25,52
-135,-25,56
-130,-25,66
-125,-25,78
-120,-25,91
-115,-25,103
-110,-25,111
-105,-25,116
-100,-25,120
-95,-25,126
-90,-25,131
-85,-25,135
-80,-25,139
-75,-25,142
-70,-25,145
-65,-25,147
-60,-25,151
-55,-25,157
-50,-25,162
-45,-25,170
-40,-25,179
-35,-25,189
-30,-25,199
-25,-25,209
-20,-25,215
-15,-25,217
-10,-25,215
-5,-25,212
0,-25,205
5,-25,197
10,-25,188
15,-25,180
20,-25,173
25,-25,168
30,-25,161
35,-25,154
40,-25,145
45,-25,138
50,-25,131
55,-25,124
60,-25,115
65,-25,106
70,-25,97
75,-25,88
80,-25,80
85,-25,71
90,-25,63
95,-25,56
100,-25,51
105,-25,50
110,-25,51
115,-25,54
120,-25,60
125,-25,67
130,-25,75
135,-25,80
140,-25,84
145,-25,86
150,-25,84
155,-25,79
160,-25,75
165,-25,71
170,-25,68
175,-25,66
180,-25,63
-180,-27.5,65
-175,-27.5,62
-170,-27.5,59
-165,-27.5,56
-160,-27.5,53
-155,-27.5,50
-150,-27.5,48
-145,-27.5,47
-140,-27.5,49
-135,-27.5,55
-130,-27.5,64
-125,-27.5,76
-120,-27.5,88
-115,-27.5,99
-110,-27.5,106
-105,-27.5,110
-100,-27.5,114
-95,-27.5,118
-90,-27.5,123
-85,-27.5,127
-80,-27.5,130
-75,-27.5,133
-70,-27.5,135
-65,-27.5,137
-60,-27.5,140
-55,-27.5,145
-50,-27.5,152
-45,-27.5,160
-40,-27.5,168
-35,-27.5,177
-30,-27.5,185
-25,-27.5,192
-20,-27.5,198
-15,-27.5,198
-10,-27.5,196
-5,-27.5,192
0,-27.5,186
5,-27.5,179
10,-27.5,172
15,-27.5,166
20,-27.5,161
25,-27.5,158
30,-27.5,153
35,-27.5,146
40,-27.5,138
45,-27.5,132
50,-27.5,125
55,-27.5,117
60,-27.5,110
65,-27.5,102
70,-27.5,94
75,-27.5,87
80,-27.5,81
85,-27.5,73
90,-27.5,65
95,-27.5,58
100,-27.5,53
105,-27.5,51
110,-27.5,52
115,-27.5,54
120,-27.5,58
125,-27.5,66
130,-27.5,71
135,-27.5,78
140,-27.5,83
145,-27.5,85
150,-27.5,84
155,-27.5,82
160,-27.5,78
165,-27.5,74
170,-27.5,71
175,-27.5,68
180,-27.5,65
-180,-30,70
-175,-30,66
-170,-30,62
-165,-30,58
-160,-30,53
-155,-30,50
-150,-30,48
-145,-30,47
-140,-30,50
-135,-30,55
-130,-30,64
-125,-30,75
-120,-30,86
-115,-30,95
-110,-30,101
-105,-30,104
-100,-30,107
-95,-30,111
-90,-30,115
-85,-30,119
-80,-30,122
-75,-30,123
-70,-30,125
-65,-30,126
-60,-30,130
-55,-30,135
-50,-30,143
-45,-30,150
-40,-30,158
-35,-30,165
-30,-30,172
-25,-30,177
-20,-30,181
-15,-30,181
-10,-30,179
-5,-30,175
0,-30,170
5,-30,163
10,-30,158
15,-30,153
20,-30,150
25,-30,147
30,-30,144
35,-30,138
40,-30,131
45,-30,126
50,-30,120
55,-30,113
60,-30,106
65,-30,100
70,-30,94
75,-30,89
80,-30,84
85,-30,77
90,-30,69
95,-30,61
100,-30,55
105,-30,52
110,-30,51
115,-30,52
120,-30,54
125,-30,61
130,-30,67
135,-30,74
140,-30,79
145,-30,81
150,-30,82
155,-30,81
160,-30,80
165,-30,77
170,-30,75
175,-30,72
180,-30,70
-180,-32.5,75
-175,-32.5,72
-170,-32.5,68
-165,-32.5,63
-160,-32.5,57
-155,-32.5,52
-150,-32.5,50
-145,-32.5,50
-140,-32.5,52
-135,-32.5,57
-130,-32.5,65
-125,-32.5,75
-120,-32.5,85
-115,-32.5,93
-110,-32.5,97
-105,-32.5,100
-100,-32.5,102
-95,-32.5,105
-90,-32.5,108
-85,-32.5,112
-80,-32.5,114
-75,-32.5,115
-70,-32.5,116
-65,-32.5,118
-60,-32.5,122
-55,-32.5,127
-50,-32.5,134
-45,-32.5,142
-40,-32.5,148
-35,-32.5,154
-30,-32.5,159
-25,-32.5,163
-20,-32.5,166
-15,-32.5,166
-10,-32.5,164
-5,-32.5,161
0,-32.5,155
5,-32.5,151
10,-32.5,145
15,-32.5,141
20,-32.5,139
25,-32.5,136
30,-32.5,133
35,-32.5,128
40,-32.5,124
45,-32.5,119
50,-32.5,115
55,-32.5,110
60,-32.5,105
65,-32.5,100
70,-32.5,95
75,-32.5,92
80,-32.5,88
85,-32.5,81
90,-32.5,72
95,-32.5,63
100,-32.5,55
105,-32.5,49
110,-32.5,45
115,-32.5,45
120,-32.5,47
125,-32.5,53
130,-32.5,60
135,-32.5,67
140,-32.5,71
145,-32.5,75
150,-32.5,76
155,-32.5,77
160,-32.5,78
165,-32.5,78
170,-32.5,78
175,-32.5,77
180,-32.5,75
-180,-35,81
-175,-35,79
-170,-35,76
-165,-35,69
-160,-35,63
-155,-35,58
-150,-35,55
-145,-35,55
-140,-35,57
-135,-35,62
-130,-35,70
-125,-35,78
-120,-35,86
-115,-35,93
-110,-35,96
-105,-35,98
-100,-35,99
-95,-35,101
-90,-35,104
-85,-35,107
-80,-35,109
-75,-35,109
-70,-35,110
-65,-35,113
-60,-35,116
-55,-35,121
-50,-35,127
-45,-35,134
-40,-35,139
-35,-35,144
-30,-35,148
-25,-35,152
-20,-35,154
-15,-35,154
-10,-35,153
-5,-35,149
0,-35,144
5,-35,138
10,-35,134
15,-35,130
20,-35,128
25,-35,126
30,-35,124
35,-35,120
40,-35,116
45,-35,113
50,-35,110
55,-35,108
60,-35,104
65,-35,101
70,-35,97
75,-35,93
80,-35,88
85,-35,82
90,-35,72
95,-35,61
100,-35,52
105,-35,44
110,-35,40
115,-35,39
120,-35,40
125,-35,44
130,-35,50
135,-35,56
140,-35,61
145,-35,65
150,-35,67
155,-35,70
160,-35,74
165,-35,77
170,-35,78
175,-35,81
180,-35,81
-180,-37.5,82
-175,-37.5,83
-170,-37.5,81
-165,-37.5,76
-160,-37.5,70
-155,-37.5,64
-150,-37.5,62
-145,-37.5,62
-140,-37.5,65
-135,-37.5,70
-130,-37.5,77
-125,-37.5,83
-120,-37.5,91
-115,-37.5,96
-110,-37.5,98
-105,-37.5,99
-100,-37.5,100
-95,-37.5,101
-90,-37.5,102
-85,-37.5,104
-80,-37.5,106
-75,-37.5,107
-70,-37.5,108
-65,-37.5,109
-60,-37.5,112
-55,-37.5,117
-50,-37.5,122
-45,-37.5,127
-40,-37.5,132
-35,-37.5,136
-30,-37.5,140
-25,-37.5,143
-20,-37.5,145
-15,-37.5,145
-10,-37.5,144
-5,-37.5,140
0,-37.5,135
5,-37.5,129
10,-37.5,125
15,-37.5,122
20,-37.5,120
25,-37.5,119
30,-37.5,116
35,-37.5,113
40,-37.5,110
45,-37.5,108
50,-37.5,107
55,-37.5,106
60,-37.5,104
65,-37.5,100
70,-37.5,96
75,-37.5,92
80,-37.5,86
85,-37.5,78
90,-37.5,69
95,-37.5,57
100,-37.5,47
105,-37.5,39
110,-37.5,34
115,-37.5,32
120,-37.5,32
125,-37.5,36
130,-37.5,40
135,-37.5,46
140,-37.5,50
145,-37.5,54
150,-37.5,56
155,-37.5,61
160,-37.5,65
165,-37.5,71
170,-37.5,76
175,-37.5,80
180,-37.5,82
-180,-40,79
-175,-40,82
-170,-40,82
-165,-40,79
-160,-40,75
-155,-40,70
-150,-40,68
-145,-40,70
-140,-40,73
-135,-40,78
-130,-40,85
-125,-40,91
-120,-40,97
-115,-40,101
-110,-40,103
-105,-40,103
-100,-40,104
-95,-40,104
-90,-40,105
-85,-40,105
-80,-40,106
-75,-40,106
-70,-40,108
-65,-40,109
-60,-40,111
-55,-40,115
-50,-40,119
-45,-40,122
-40,-40,126
-35,-40,130
-30,-40,134
-25,-40,136
-20,-40,138
-15,-40,138
-10,-40,136
-5,-40,133
0,-40,128
5,-40,123
10,-40,119
15,-40,117
20,-40,115
25,-40,113
30,-40,110
35,-40,108
40,-40,106
45,-40,105
50,-40,105
55,-40,105
60,-40,103
65,-40,99
70,-40,94
75,-40,89
80,-40,82
85,-40,74
90,-40,64
95,-40,53
100,-40,43
105,-40,35
110,-40,29
115,-40,27
120,-40,26
125,-40,28
130,-40,32
135,-40,35
140,-40,39
145,-40,41
150,-40,43
155,-40,48
160,-40,54
165,-40,61
170,-40,67
175,-40,74
180,-40,79
-180,-42.5,70
-175,-42.5,75
-170,-42.5,78
-165,-42.5,77
-160,-42.5,76
-155,-42.5,73
-150,-42.5,72
-145,-42.5,75
-140,-42.5,80
-135,-42.5,86
-130,-42.5,93
-125,-42.5,99
-120,-42.5,104
-115,-42.5,106
-110,-42.5,108
-105,-42.5,109
-100,-42.5,108
-95,-42.5,108
-90,-42.5,109
-85,-42.5,109
-80,-42.5,108
-75,-42.5,109
-70,-42.5,109
-65,-42.5,110
-60,-42.5,113
-55,-42.5,115
-50,-42.5,118
-45,-42.5,120
-40,-42.5,123
-35,-42.5,126
-30,-42.5,129
-25,-42.5,131
-20,-42.5,132
-15,-42.5,132
-10,-42.5,131
-5,-42.5,128
0,-42.5,124
5,-42.5,119
10,-42.5,116
15,-42.5,113
20,-42.5,110
25,-42.5,108
30,-42.5,106
35,-42.5,104
40,-42.5,104
45,-42.5,104
50,-42.5,105
55,-42.5,104
60,-42.5,102
65,-42.5,98
70,-42.5,91
75,-42.5,84
80,-42.5,77
85,-42.5,69
90,-42.5,60
95,-42.5,51
100,-42.5,42
105,-42.5,35
110,-42.5,28
115,-42.5,25
120,-42.5,23
125,-42.5,24
130,-42.5,26
135,-42.5,28
140,-42.5,30
145,-42.5,31
150,-42.5,33
155,-42.5,36
160,-42.5,41
165,-42.5,47
170,-42.5,55
175,-42.5,63
180,-42.5,70
-180,-45,57
-175,-45,64
-170,-45,68
-165,-45,69
-160,-45,71
-155,-45,72
-150,-45,73
-145,-45,77
-140,-45,84
-135,-45,91
-130,-45,98
-125,-45,104
-120,-45,109
-115,-45,111
-110,-45,112
-105,-45,113
-100,-45,112
-95,-45,113
-90,-45,113
-85,-45,113
-80,-45,112
-75,-45,112
-70,-45,112
-65,-45,112
-60,-45,114
-55,-45,116
-50,-45,117
-45,-45,119
-40,-45,120
-35,-45,122
-30,-45,125
-25,-45,127
-20,-45,128
-15,-45,128
-10,-45,126
-5,-45,123
0,-45,119
5,-45,116
10,-45,113
15,-45,110
20,-45,108
25,-45,106
30,-45,104
35,-45,103
40,-45,103
45,-45,104
50,-45,105
55,-45,104
60,-45,101
65,-45,96
70,-45,88
75,-45,81
80,-45,73
85,-45,65
90,-45,58
95,-45,50
100,-45,43
105,-45,37
110,-45,31
115,-45,27
120,-45,24
125,-45,23
130,-45,23
135,-45,24
140,-45,24
145,-45,24
150,-45,24
155,-45,26
160,-45,29
165,-45,34
170,-45,42
175,-45,49
180,-45,57
-180,-47.5,42
-175,-47.5,49
-170,-47.5,55
-165,-47.5,59
-160,-47.5,63
-155,-47.5,66
-150,-47.5,70
-145,-47.5,76
-140,-47.5,84
-135,-47.5,92
-130,-47.5,99
-125,-47.5,105
-120,-47.5,110
-115,-47.5,112
-110,-47.5,114
-105,-47.5,115
-100,-47.5,115
-95,-47.5,115
-90,-47.5,115
-85,-47.5,115
-80,-47.5,115
-75,-47.5,115
-70,-47.5,114
-65,-47.5,114
-60,-47.5,114
-55,-47.5,114
-50,-47.5,114
-45,-47.5,115
-40,-47.5,117
-35,-47.5,119
-30,-47.5,121
-25,-47.5,123
-20,-47.5,123
-15,-47.5,123
-10,-47.5,121
-5,-47.5,118
0,-47.5,115
5,-47.5,112
10,-47.5,110
15,-47.5,108
20,-47.5,106
25,-47.5,104
30,-47.5,103
35,-47.5,103
40,-47.5,104
45,-47.5,105
50,-47.5,105
55,-47.5,104
60,-47.5,100
65,-47.5,93
70,-47.5,85
75,-47.5,77
80,-47.5,69
85,-47.5,63
90,-47.5,57
95,-47.5,52
100,-47.5,47
105,-47.5,42
110,-47.5,37
115,-47.5,32
120,-47.5,28
125,-47.5,25
130,-47.5,25
135,-47.5,24
140,-47.5,23
145,-47.5,22
150,-47.5,21
155,-47.5,20
160,-47.5,21
165,-47.5,25
170,-47.5,30
175,-47.5,36
180,-47.5,42
-180,-50,30
-175,-50,36
-170,-50,41
-165,-50,47
-160,-50,52
-155,-50,57
-150,-50,63
-145,-50,71
-140,-50,79
-135,-50,88
-130,-50,96
-125,-50,102
-120,-50,107
-115,-50,110
-110,-50,112
-105,-50,113
-100,-50,114
-95,-50,114
-90,-50,115
-85,-50,115
-80,-50,115
-75,-50,115
-70,-50,114
-65,-50,113
-60,-50,111
-55,-50,110
-50,-50,110
-45,-50,111
-40,-50,112
-35,-50,114
-30,-50,117
-25,-50,117
-20,-50,118
-15,-50,117
-10,-50,115
-5,-50,112
0,-50,110
5,-50,108
10,-50,106
15,-50,105
20,-50,104
25,-50,104
30,-50,104
35,-50,104
40,-50,105
45,-50,106
50,-50,105
55,-50,103
60,-50,98
65,-50,90
70,-50,82
75,-50,75
80,-50,68
85,-50,63
90,-50,60
95,-50,56
100,-50,53
105,-50,49
110,-50,44
115,-50,39
120,-50,35
125,-50,31
130,-50,29
135,-50,28
140,-50,26
145,-50,23
150,-50,21
155,-50,18
160,-50,17
165,-50,20
170,-50,22
175,-50,25
180,-50,30
-180,-52.5,22
-175,-52.5,26
-170,-52.5,30
-165,-52.5,36
-160,-52.5,42
-155,-52.5,48
-150,-52.5,55
-145,-52.5,63
-140,-52.5,72
-135,-52.5,81
-130,-52.5,89
-125,-52.5,96
-120,-52.5,100
-115,-52.5,104
-110,-52.5,107
-105,-52.5,108
-100,-52.5,110
-95,-52.5,110
-90,-52.5,110
-85,-52.5,111
-80,-52.5,111
-75,-52.5,111
-70,-52.5,109
-65,-52.5,108
-60,-52.5,107
-55,-52.5,105
-50,-52.5,105
-45,-52.5,105
-40,-52.5,106
-35,-52.5,108
-30,-52.5,110
-25,-52.5,110
-20,-52.5,111
-15,-52.5,110
-10,-52.5,108
-5,-52.5,106
0,-52.5,105
5,-52.5,103
10,-52.5,103
15,-52.5,103
20,-52.5,103
25,-52.5,103
30,-52.5,104
35,-52.5,104
40,-52.5,105
45,-52.5,105
50,-52.5,104
55,-52.5,100
60,-52.5,94
65,-52.5,87
70,-52.5,79
75,-52.5,73
80,-52.5,68
85,-52.5,65
90,-52.5,63
95,-52.5,61
100,-52.5,59
105,-52.5,56
110,-52.5,52
115,-52.5,46
120,-52.5,42
125,-52.5,38
130,-52.5,35
135,-52.5,33
140,-52.5,30
145,-52.5,28
150,-52.5,25
155,-52.5,22
160,-52.5,19
165,-52.5,18
170,-52.5,19
175,-52.5,19
180,-52.5,22
-180,-55,21
-175,-55,22
-170,-55,25
-165,-55,30
-160,-55,35
-155,-55,41
-150,-55,48
-145,-55,56
-140,-55,65
-135,-55,74
-130,-55,81
-125,-55,88
-120,-55,93
-115,-55,96
-110,-55,99
-105,-55,101
-100,-55,102
-95,-55,103
-90,-55,104
-85,-55,104
-80,-55,105
-75,-55,105
-70,-55,104
-65,-55,102
-60,-55,100
-55,-55,99
-50,-55,99
-45,-55,98
-40,-55,99
-35,-55,101
-30,-55,102
-25,-55,103
-20,-55,104
-15,-55,103
-10,-55,102
-5,-55,101
0,-55,99
5,-55,99
10,-55,99
15,-55,100
20,-55,100
25,-55,102
30,-55,103
35,-55,103
40,-55,103
45,-55,102
50,-55,100
55,-55,95
60,-55,89
65,-55,82
70,-55,76
75,-55,70
80,-55,67
85,-55,67
90,-55,66
95,-55,66
100,-55,66
105,-55,63
110,-55,58
115,-55,53
120,-55,48
125,-55,43
130,-55,40
135,-55,38
140,-55,36
145,-55,33
150,-55,32
155,-55,28
160,-55,24
165,-55,23
170,-55,20
175,-55,19
180,-55,21
-180,-57.5,24
-175,-57.5,24
-170,-57.5,26
-165,-57.5,29
-160,-57.5,33
-155,-57.5,39
-150,-57.5,45
-145,-57.5,52
-140,-57.5,60
-135,-57.5,67
-130,-57.5,74
-125,-57.5,80
-120,-57.5,84
-115,-57.5,88
-110,-57.5,90
-105,-57.5,93
-100,-57.5,94
-95,-57.5,96
-90,-57.5,97
-85,-57.5,97
-80,-57.5,98
-75,-57.5,97
-70,-57.5,96
-65,-57.5,94
-60,-57.5,93
-55,-57.5,92
-50,-57.5,91
-45,-57.5,91
-40,-57.5,92
-35,-57.5,93
-30,-57.5,95
-25,-57.5,95
-20,-57.5,96
-15,-57.5,97
-10,-57.5,96
-5,-57.5,95
0,-57.5,95
5,-57.5,95
10,-57.5,95
15,-57.5,97
20,-57.5,98
25,-57.5,99
30,-57.5,100
35,-57.5,100
40,-57.5,100
45,-57.5,98
50,-57.5,94
55,-57.5,90
60,-57.5,83
65,-57.5,77
70,-57.5,72
75,-57.5,69
80,-57.5,67
85,-57.5,68
90,-57.5,69
95,-57.5,70
100,-57.5,70
105,-57.5,67
110,-57.5,63
115,-57.5,58
120,-57.5,52
125,-57.5,47
130,-57.5,44
135,-57.5,42
140,-57.5,41
145,-57.5,40
150,-57.5,39
155,-57.5,34
160,-57.5,31
165,-57.5,29
170,-57.5,27
175,-57.5,24
180,-57.5,24
-180,-60,29
-175,-60,29
-170,-60,30
-165,-60,32
-160,-60,35
-155,-60,40
-150,-60,45
-145,-60,51
-140,-60,58
-135,-60,63
-130,-60,69
-125,-60,74
-120,-60,78
-115,-60,81
-110,-60,84
-105,-60,86
-100,-60,87
-95,-60,88
-90,-60,89
-85,-60,90
-80,-60,89
-75,-60,88
-70,-60,86
-65,-60,85
-60,-60,84
-55,-60,83
-50,-60,82
-45,-60,83
-40,-60,84
-35,-60,85
-30,-60,87
-25,-60,88
-20,-60,90
-15,-60,91
-10,-60,91
-5,-60,91
0,-60,91
5,-60,92
10,-60,92
15,-60,94
20,-60,95
25,-60,95
30,-60,96
35,-60,95
40,-60,94
45,-60,91
50,-60,87
55,-60,82
60,-60,77
65,-60,72
70,-60,68
75,-60,67
80,-60,67
85,-60,69
90,-60,71
95,-60,72
100,-60,72
105,-60,70
110,-60,66
115,-60,61
120,-60,55
125,-60,49
130,-60,47
135,-60,46
140,-60,45
145,-60,44
150,-60,44
155,-60,41
160,-60,38
165,-60,36
170,-60,34
175,-60,31
180,-60,29
-180,-62.5,37
-175,-62.5,36
-170,-62.5,37
-165,-62.5,39
-160,-62.5,41
-155,-62.5,44
-150,-62.5,49
-145,-62.5,54
-140,-62.5,59
-135,-62.5,64
-130,-62.5,68
-125,-62.5,71
-120,-62.5,74
-115,-62.5,77
-110,-62.5,79
-105,-62.5,80
-100,-62.5,81
-95,-62.5,82
-90,-62.5,82
-85,-62.5,82
-80,-62.5,81
-75,-62.5,79
-70,-62.5,77
-65,-62.5,76
-60,-62.5,75
-55,-62.5,74
-50,-62.5,74
-45,-62.5,75
-40,-62.5,76
-35,-62.5,79
-30,-62.5,81
-25,-62.5,83
-20,-62.5,85
-15,-62.5,87
-10,-62.5,88
-5,-62.5,89
0,-62.5,89
5,-62.5,90
10,-62.5,90
15,-62.5,91
20,-62.5,92
25,-62.5,92
30,-62.5,91
35,-62.5,90
40,-62.5,87
45,-62.5,84
50,-62.5,80
55,-62.5,75
60,-62.5,71
65,-62.5,68
70,-62.5,66
75,-62.5,66
80,-62.5,67
85,-62.5,69
90,-62.5,72
95,-62.5,74
100,-62.5,74
105,-62.5,72
110,-62.5,68
115,-62.5,63
120,-62.5,57
125,-62.5,52
130,-62.5,49
135,-62.5,49
140,-62.5,48
145,-62.5,47
150,-62.5,47
155,-62.5,46
160,-62.5,44
165,-62.5,42
170,-62.5,40
175,-62.5,38
180,-62.5,37
-180,-65,44
-175,-65,44
-170,-65,44
-165,-65,46
-160,-65,48
-155,-65,51
-150,-65,54
-145,-65,58
-140,-65,62
-135,-65,66
-130,-65,69
-125,-65,71
-120,-65,73
-115,-65,75
-110,-65,76
-105,-65,77
-100,-65,77
-95,-65,76
-90,-65,76
-85,-65,75
-80,-65,74
-75,-65,72
-70,-65,70
-65,-65,69
-60,-65,68
-55,-65,68
-50,-65,68
-45,-65,69
-40,-65,72
-35,-65,74
-30,-65,77
-25,-65,80
-20,-65,83
-15,-65,85
-10,-65,86
-5,-65,87
0,-65,88
5,-65,89
10,-65,89
15,-65,89
20,-65,88
25,-65,87
30,-65,86
35,-65,84
40,-65,81
45,-65,78
50,-65,74
55,-65,70
60,-65,66
65,-65,65
70,-65,64
75,-65,66
80,-65,68
85,-65,71
90,-65,73
95,-65,75
100,-65,75
105,-65,74
110,-65,70
115,-65,65
120,-65,58
125,-65,53
130,-65,52
135,-65,51
140,-65,50
145,-65,49
150,-65,49
155,-65,48
160,-65,47
165,-65,46
170,-65,45
175,-65,44
180,-65,44
-180,-67.5,48
-175,-67.5,48
-170,-67.5,50
-165,-67.5,52
-160,-67.5,54
-155,-67.5,56
-150,-67.5,59
-145,-67.5,62
-140,-67.5,66
-135,-67.5,69
-130,-67.5,71
-125,-67.5,73
-120,-67.5,74
-115,-67.5,75
-110,-67.5,76
-105,-67.5,76
-100,-67.5,76
-95,-67.5,74
-90,-67.5,73
-85,-67.5,72
-80,-67.5,70
-75,-67.5,67
-70,-67.5,65
-65,-67.5,64
-60,-67.5,64
-55,-67.5,64
-50,-67.5,65
-45,-67.5,67
-40,-67.5,69
-35,-67.5,72
-30,-67.5,76
-25,-67.5,79
-20,-67.5,82
-15,-67.5,85
-10,-67.5,87
-5,-67.5,87
0,-67.5,88
5,-67.5,88
10,-67.5,88
15,-67.5,87
20,-67.5,86
25,-67.5,84
30,-67.5,82
35,-67.5,79
40,-67.5,77
45,-67.5,73
50,-67.5,70
55,-67.5,67
60,-67.5,65
65,-67.5,64
70,-67.5,65
75,-67.5,67
80,-67.5,70
85,-67.5,73
90,-67.5,76
95,-67.5,77
100,-67.5,77
105,-67.5,75
110,-67.5,72
115,-67.5,67
120,-67.5,61
125,-67.5,57
130,-67.5,55
135,-67.5,53
140,-67.5,52
145,-67.5,51
150,-67.5,50
155,-67.5,49
160,-67.5,48
165,-67.5,47
170,-67.5,47
175,-67.5,48
180,-67.5,48
-180,-70,49
-175,-70,50
-170,-70,52
-165,-70,55
-160,-70,57
-155,-70,60
-150,-70,62
-145,-70,65
-140,-70,68
-135,-70,70
-130,-70,72
-125,-70,74
-120,-70,75
-115,-70,76
-110,-70,76
-105,-70,76
-100,-70,75
-95,-70,74
-90,-70,72
-85,-70,71
-80,-70,68
-75,-70,66
-70,-70,64
-65,-70,63
-60,-70,63
-55,-70,63
-50,-70,64
-45,-70,66
-40,-70,69
-35,-70,73
-30,-70,76
-25,-70,80
-20,-70,83
-15,-70,85
-10,-70,87
-5,-70,88
0,-70,88
5,-70,88
10,-70,87
15,-70,86
20,-70,84
25,-70,82
30,-70,79
35,-70,77
40,-70,74
45,-70,71
50,-70,69
55,-70,67
60,-70,66
65,-70,66
70,-70,68
75,-70,70
80,-70,73
85,-70,76
90,-70,78
95,-70,80
100,-70,79
105,-70,78
110,-70,74
115,-70,69
120,-70,65
125,-70,61
130,-70,58
135,-70,55
140,-70,53
145,-70,51
150,-70,51
155,-70,49
160,-70,48
165,-70,48
170,-70,48
175,-70,49
180,-70,49
-180,-72.5,49
-175,-72.5,50
-170,-72.5,52
-165,-72.5,54
-160,-72.5,57
-155,-72.5,60
-150,-72.5,63
-145,-72.5,65
-140,-72.5,68
-135,-72.5,70
-130,-72.5,72
-125,-72.5,73
-120,-72.5,75
-115,-72.5,75
-110,-72.5,76
-105,-72.5,75
-100,-72.5,74
-95,-72.5,73
-90,-72.5,72
-85,-72.5,70
-80,-72.5,68
-75,-72.5,67
-70,-72.5,66
-65,-72.5,65
-60,-72.5,65
-55,-72.5,65
-50,-72.5,66
-45,-72.5,68
-40,-72.5,71
-35,-72.5,74
-30,-72.5,78
-25,-72.5,81
-20,-72.5,83
-15,-72.5,85
-10,-72.5,87
-5,-72.5,88
0,-72.5,88
5,-72.5,87
10,-72.5,87
15,-72.5,86
20,-72.5,84
25,-72.5,82
30,-72.5,79
35,-72.5,77
40,-72.5,74
45,-72.5,72
50,-72.5,70
55,-72.5,69
60,-72.5,69
65,-72.5,69
70,-72.5,71
75,-72.5,74
80,-72.5,77
85,-72.5,80
90,-72.5,83
95,-72.5,83
100,-72.5,81
105,-72.5,80
110,-72.5,76
115,-72.5,72
120,-72.5,68
125,-72.5,64
130,-72.5,60
135,-72.5,57
140,-72.5,54
145,-72.5,52
150,-72.5,50
155,-72.5,48
160,-72.5,48
165,-72.5,47
170,-72.5,47
175,-72.5,48
180,-72.5,49
-180,-75,47
-175,-75,48
-170,-75,50
-165,-75,53
-160,-75,55
-155,-75,58
-150,-75,60
-145,-75,63
-140,-75,65
-135,-75,67
-130,-75,69
-125,-75,71
-120,-75,72
-115,-75,73
-110,-75,73
-105,-75,73
-100,-75,73
-95,-75,72
-90,-75,71
-85,-75,70
-80,-75,69
-75,-75,68
-70,-75,68
-65,-75,67
-60,-75,67
-55,-75,68
-50,-75,69
-45,-75,71
-40,-75,73
-35,-75,76
-30,-75,78
-25,-75,81
-20,-75,83
-15,-75,85
-10,-75,86
-5,-75,87
0,-75,87
5,-75,87
10,-75,86
15,-75,85
20,-75,84
25,-75,82
30,-75,80
35,-75,78
40,-75,77
45,-75,75
50,-75,74
55,-75,73
60,-75,73
65,-75,74
70,-75,75
75,-75,77
80,-75,79
85,-75,82
90,-75,85
95,-75,87
100,-75,85
105,-75,82
110,-75,78
115,-75,73
120,-75,69
125,-75,66
130,-75,62
135,-75,59
140,-75,55
145,-75,53
150,-75,50
155,-75,48
160,-75,47
165,-75,47
170,-75,46
175,-75,47
180,-75,47
-180,-77.5,47
-175,-77.5,47
-170,-77.5,49
-165,-77.5,50
-160,-77.5,52
-155,-77.5,54
-150,-77.5,56
-145,-77.5,59
-140,-77.5,61
-135,-77.5,63
-130,-77.5,65
-125,-77.5,67
-120,-77.5,68
-115,-77.5,69
-110,-77.5,70
-105,-77.5,70
-100,-77.5,70
-95,-77.5,69
-90,-77.5,69
-85,-77.5,69
-80,-77.5,69
-75,-77.5,69
-70,-77.5,69
-65,-77.5,69
-60,-77.5,69
-55,-77.5,70
-50,-77.5,71
-45,-77.5,73
-40,-77.5,75
-35,-77.5,77
-30,-77.5,78
-25,-77.5,80
-20,-77.5,82
-15,-77.5,83
-10,-77.5,85
-5,-77.5,85
0,-77.5,86
5,-77.5,86
10,-77.5,86
15,-77.5,85
20,-77.5,84
25,-77.5,83
30,-77.5,82
35,-77.5,81
40,-77.5,80
45,-77.5,79
50,-77.5,78
55,-77.5,78
60,-77.5,77
65,-77.5,77
70,-77.5,78
75,-77.5,80
80,-77.5,81
85,-77.5,82
90,-77.5,83
95,-77.5,86
100,-77.5,88
105,-77.5,85
110,-77.5,80
115,-77.5,74
120,-77.5,70
125,-77.5,67
130,-77.5,64
135,-77.5,60
140,-77.5,57
145,-77.5,55
150,-77.5,52
155,-77.5,50
160,-77.5,49
165,-77.5,47
170,-77.5,46
175,-77.5,46
180,-77.5,47
-180,-80,48
-175,-80,48
-170,-80,48
-165,-80,49
-160,-80,50
-155,-80,51
-150,-80,53
-145,-80,55
-140,-80,57
-135,-80,60
-130,-80,61
-125,-80,63
-120,-80,64
-115,-80,65
-110,-80,66
-105,-80,66
-100,-80,66
-95,-80,67
-90,-80,67
-85,-80,67
-80,-80,68
-75,-80,68
-70,-80,69
-65,-80,69
-60,-80,70
-55,-80,71
-50,-80,72
-45,-80,73
-40,-80,74
-35,-80,76
-30,-80,78
-25,-80,79
-20,-80,80
-15,-80,81
-10,-80,82
-5,-80,83
0,-80,84
5,-80,84
10,-80,84
15,-80,84
20,-80,83
25,-80,83
30,-80,83
35,-80,82
40,-80,82
45,-80,81
50,-80,81
55,-80,81
60,-80,80
65,-80,80
70,-80,80
75,-80,80
80,-80,80
85,-80,81
90,-80,80
95,-80,80
100,-80,79
105,-80,77
110,-80,75
115,-80,74
120,-80,71
125,-80,69
130,-80,66
135,-80,64
140,-80,60
145,-80,58
150,-80,56
155,-80,53
160,-80,51
165,-80,49
170,-80,48
175,-80,48
180,-80,48
-180,-82.5,50
-175,-82.5,50
-170,-82.5,50
-165,-82.5,50
-160,-82.5,50
-155,-82.5,52
-150,-82.5,53
-145,-82.5,55
-140,-82.5,56
-135,-82.5,57
-130,-82.5,58
-125,-82.5,59
-120,-82.5,60
-115,-82.5,61
-110,-82.5,62
-105,-82.5,63
-100,-82.5,64
-95,-82.5,64
-90,-82.5,65
-85,-82.5,65
-80,-82.5,66
-75,-82.5,67
-70,-82.5,68
-65,-82.5,69
-60,-82.5,70
-55,-82.5,71
-50,-82.5,72
-45,-82.5,73
-40,-82.5,73
-35,-82.5,75
-30,-82.5,76
-25,-82.5,77
-20,-82.5,78
-15,-82.5,79
-10,-82.5,80
-5,-82.5,80
0,-82.5,81
5,-82.5,81
10,-82.5,81
15,-82.5,81
20,-82.5,82
25,-82.5,82
30,-82.5,82
35,-82.5,82
40,-82.5,81
45,-82.5,81
50,-82.5,81
55,-82.5,81
60,-82.5,80
65,-82.5,81
70,-82.5,80
75,-82.5,80
80,-82.5,80
85,-82.5,79
90,-82.5,78
95,-82.5,77
100,-82.5,76
105,-82.5,74
110,-82.5,73
115,-82.5,72
120,-82.5,70
125,-82.5,68
130,-82.5,66
135,-82.5,64
140,-82.5,62
145,-82.5,60
150,-82.5,58
155,-82.5,56
160,-82.5,54
165,-82.5,52
170,-82.5,51
175,-82.5,50
180,-82.5,50
-180,-85,54
-175,-85,53
-170,-85,53
-165,-85,53
-160,-85,53
-155,-85,54
-150,-85,55
-145,-85,55
-140,-85,56
-135,-85,56
-130,-85,57
-125,-85,58
-120,-85,59
-115,-85,60
-110,-85,60
-105,-85,61
-100,-85,62
-95,-85,63
-90,-85,63
-85,-85,64
-80,-85,65
-75,-85,66
-70,-85,67
-65,-85,67
-60,-85,68
-55,-85,69
-50,-85,70
-45,-85,70
-40,-85,71
-35,-85,72
-30,-85,73
-25,-85,74
-20,-85,75
-15,-85,76
-10,-85,77
-5,-85,77
0,-85,78
5,-85,78
10,-85,78
15,-85,78
20,-85,79
25,-85,79
30,-85,79
35,-85,79
40,-85,78
45,-85,79
50,-85,79
55,-85,79
60,-85,78
65,-85,78
70,-85,77
75,-85,77
80,-85,76
85,-85,76
90,-85,75
95,-85,74
100,-85,73
105,-85,72
110,-85,71
115,-85,70
120,-85,68
125,-85,67
130,-85,66
135,-85,64
140,-85,62
145,-85,61
150,-85,60
155,-85,58
160,-85,57
165,-85,56
170,-85,55
175,-85,54
180,-85,54
-180,-87.5,59
-175,-87.5,59
-170,-87.5,59
-165,-87.5,59
-160,-87.5,59
-155,-87.5,59
-150,-87.5,59
-145,-87.5,59
-140,-87.5,60
-135,-87.5,60
-130,-87.5,60
-125,-87.5,60
-120,-87.5,61
-115,-87.5,61
-110,-87.5,61
-105,-87.5,62
-100,-87.5,62
-95,-87.5,63
-90,-87.5,64
-85,-87.5,64
-80,-87.5,65
-75,-87.5,65
-70,-87.5,66
-65,-87.5,66
-60,-87.5,67
-55,-87.5,67
-50,-87.5,68
-45,-87.5,68
-40,-87.5,69
-35,-87.5,69
-30,-87.5,70
-25,-87.5,70
-20,-87.5,71
-15,-87.5,71
-10,-87.5,72
-5,-87.5,73
0,-87.5,73
5,-87.5,73
10,-87.5,73
15,-87.5,73
20,-87.5,74
25,-87.5,74
30,-87.5,74
35,-87.5,74
40,-87.5,74
45,-87.5,74
50,-87.5,74
55,-87.5,74
60,-87.5,73
65,-87.5,73
70,-87.5,73
75,-87.5,72
80,-87.5,72
85,-87.5,71
90,-87.5,71
95,-87.5,70
100,-87.5,70
105,-87.5,69
110,-87.5,68
115,-87.5,68
120,-87.5,67
125,-87.5,66
130,-87.5,65
135,-87.5,64
140,-87.5,64
145,-87.5,63
150,-87.5,63
155,-87.5,62
160,-87.5,61
165,-87.5,61
170,-87.5,60
175,-87.5,60
180,-87.5,59
