LON,LAT,VAL
-180,87.5,34
-175,87.5,34
-170,87.5,35
-165,87.5,35
-160,87.5,35
-155,87.5,35
-150,87.5,36
-145,87.5,36
-140,87.5,36
-135,87.5,36
-130,87.5,35
-125,87.5,35
-120,87.5,35
-115,87.5,35
-110,87.5,35
-105,87.5,34
-100,87.5,34
-95,87.5,33
-90,87.5,32
-85,87.5,32
-80,87.5,31
-75,87.5,30
-70,87.5,29
-65,87.5,29
-60,87.5,28
-55,87.5,28
-50,87.5,27
-45,87.5,26
-40,87.5,26
-35,87.5,25
-30,87.5,25
-25,87.5,25
-20,87.5,24
-15,87.5,24
-10,87.5,24
-5,87.5,24
0,87.5,23
5,87.5,23
10,87.5,23
15,87.5,23
20,87.5,23
25,87.5,23
30,87.5,23
35,87.5,23
40,87.5,23
45,87.5,24
50,87.5,24
55,87.5,24
60,87.5,24
65,87.5,25
70,87.5,25
75,87.5,25
80,87.5,26
85,87.5,26
90,87.5,27
95,87.5,27
100,87.5,27
105,87.5,28
110,87.5,28
115,87.5,29
120,87.5,29
125,87.5,30
130,87.5,30
135,87.5,30
140,87.5,31
145,87.5,31
150,87.5,32
155,87.5,32
160,87.5,32
165,87.5,33
170,87.5,33
175,87.5,33
180,87.5,34
-180,85,36
-175,85,37
-170,85,37
-165,85,38
-160,85,39
-155,85,39
-150,85,40
-145,85,40
-140,85,41
-135,85,41
-130,85,41
-125,85,41
-120,85,41
-115,85,40
-110,85,40
-105,85,39
-100,85,38
-95,85,37
-90,85,36
-85,85,35
-80,85,33
-75,85,32
-70,85,30
-65,85,29
-60,85,27
-55,85,26
-50,85,25
-45,85,24
-40,85,23
-35,85,22
-30,85,21
-25,85,21
-20,85,20
-15,85,20
-10,85,20
-5,85,20
0,85,20
5,85,20
10,85,20
15,85,20
20,85,21
25,85,21
30,85,21
35,85,21
40,85,21
45,85,21
50,85,22
55,85,22
60,85,22
65,85,23
70,85,23
75,85,24
80,85,24
85,85,24
90,85,25
95,85,26
100,85,26
105,85,27
110,85,27
115,85,28
120,85,28
125,85,29
130,85,29
135,85,30
140,85,31
145,85,31
150,85,32
155,85,32
160,85,33
165,85,34
170,85,35
175,85,35
180,85,36
-180,82.5,36
-175,82.5,37
-170,82.5,39
-165,82.5,40
-160,82.5,42
-155,82.5,43
-150,82.5,45
-145,82.5,46
-140,82.5,47
-135,82.5,47
-130,82.5,48
-125,82.5,48
-120,82.5,48
-115,82.5,48
-110,82.5,46
-105,82.5,45
-100,82.5,44
-95,82.5,42
-90,82.5,39
-85,82.5,37
-80,82.5,35
-75,82.5,32
-70,82.5,30
-65,82.5,28
-60,82.5,26
-55,82.5,23
-50,82.5,21
-45,82.5,19
-40,82.5,18
-35,82.5,18
-30,82.5,17
-25,82.5,17
-20,82.5,16
-15,82.5,16
-10,82.5,16
-5,82.5,17
0,82.5,17
5,82.5,17
10,82.5,17
15,82.5,17
20,82.5,17
25,82.5,18
30,82.5,18
35,82.5,19
40,82.5,20
45,82.5,21
50,82.5,21
55,82.5,21
60,82.5,22
65,82.5,22
70,82.5,22
75,82.5,23
80,82.5,23
85,82.5,24
90,82.5,25
95,82.5,25
100,82.5,26
105,82.5,27
110,82.5,27
115,82.5,28
120,82.5,27
125,82.5,28
130,82.5,28
135,82.5,29
140,82.5,29
145,82.5,30
150,82.5,30
155,82.5,31
160,82.5,32
165,82.5,33
170,82.5,34
175,82.5,35
180,82.5,36
-180,80,34
-175,80,36
-170,80,38
-165,80,41
-160,80,43
-155,80,45
-150,80,47
-145,80,49
-140,80,51
-135,80,52
-130,80,53
-125,80,53
-120,80,52
-115,80,52
-110,80,51
-105,80,49
-100,80,48
-95,80,45
-90,80,43
-85,80,40
-80,80,38
-75,80,35
-70,80,31
-65,80,25
-60,80,23
-55,80,21
-50,80,18
-45,80,17
-40,80,16
-35,80,14
-30,80,14
-25,80,13
-20,80,13
-15,80,13
-10,80,13
-5,80,13
0,80,13
5,80,15
10,80,16
15,80,17
20,80,17
25,80,17
30,80,17
35,80,18
40,80,18
45,80,19
50,80,20
55,80,21
60,80,22
65,80,22
70,80,23
75,80,23
80,80,24
85,80,24
90,80,24
95,80,25
100,80,25
105,80,26
110,80,26
115,80,27
120,80,26
125,80,26
130,80,26
135,80,26
140,80,26
145,80,27
150,80,27
155,80,28
160,80,29
165,80,30
170,80,31
175,80,33
180,80,34
-180,77.5,31
-175,77.5,34
-170,77.5,36
-165,77.5,39
-160,77.5,42
-155,77.5,44
-150,77.5,47
-145,77.5,50
-140,77.5,51
-135,77.5,52
-130,77.5,54
-125,77.5,54
-120,77.5,54
-115,77.5,54
-110,77.5,53
-105,77.5,52
-100,77.5,50
-95,77.5,47
-90,77.5,45
-85,77.5,41
-80,77.5,37
-75,77.5,34
-70,77.5,30
-65,77.5,29
-60,77.5,24
-55,77.5,20
-50,77.5,17
-45,77.5,14
-40,77.5,14
-35,77.5,13
-30,77.5,13
-25,77.5,12
-20,77.5,11
-15,77.5,12
-10,77.5,13
-5,77.5,13
0,77.5,14
5,77.5,14
10,77.5,15
15,77.5,16
20,77.5,16
25,77.5,16
30,77.5,17
35,77.5,17
40,77.5,17
45,77.5,18
50,77.5,18
55,77.5,20
60,77.5,20
65,77.5,21
70,77.5,22
75,77.5,23
80,77.5,23
85,77.5,23
90,77.5,24
95,77.5,24
100,77.5,24
105,77.5,24
110,77.5,25
115,77.5,24
120,77.5,23
125,77.5,23
130,77.5,23
135,77.5,23
140,77.5,23
145,77.5,23
150,77.5,24
155,77.5,24
160,77.5,25
165,77.5,26
170,77.5,27
175,77.5,29
180,77.5,31
-180,75,28
-175,75,31
-170,75,34
-165,75,37
-160,75,40
-155,75,43
-150,75,46
-145,75,48
-140,75,50
-135,75,53
-130,75,55
-125,75,56
-120,75,56
-115,75,56
-110,75,56
-105,75,54
-100,75,53
-95,75,50
-90,75,48
-85,75,45
-80,75,40
-75,75,36
-70,75,32
-65,75,29
-60,75,25
-55,75,21
-50,75,17
-45,75,15
-40,75,13
-35,75,11
-30,75,10
-25,75,10
-20,75,11
-15,75,12
-10,75,13
-5,75,14
0,75,15
5,75,15
10,75,15
15,75,16
20,75,16
25,75,16
30,75,15
35,75,15
40,75,16
45,75,16
50,75,17
55,75,17
60,75,19
65,75,19
70,75,20
75,75,21
80,75,21
85,75,22
90,75,22
95,75,22
100,75,23
105,75,22
110,75,22
115,75,22
120,75,21
125,75,20
130,75,20
135,75,19
140,75,19
145,75,19
150,75,19
155,75,19
160,75,20
165,75,21
170,75,24
175,75,26
180,75,28
-180,72.5,26
-175,72.5,29
-170,72.5,33
-165,72.5,36
-160,72.5,39
-155,72.5,42
-150,72.5,45
-145,72.5,48
-140,72.5,50
-135,72.5,53
-130,72.5,56
-125,72.5,56
-120,72.5,57
-115,72.5,58
-110,72.5,58
-105,72.5,56
-100,72.5,55
-95,72.5,54
-90,72.5,51
-85,72.5,48
-80,72.5,44
-75,72.5,39
-70,72.5,35
-65,72.5,30
-60,72.5,26
-55,72.5,22
-50,72.5,18
-45,72.5,16
-40,72.5,13
-35,72.5,11
-30,72.5,11
-25,72.5,10
-20,72.5,11
-15,72.5,12
-10,72.5,14
-5,72.5,15
0,72.5,16
5,72.5,15
10,72.5,15
15,72.5,15
20,72.5,15
25,72.5,14
30,72.5,13
35,72.5,13
40,72.5,12
45,72.5,13
50,72.5,13
55,72.5,14
60,72.5,15
65,72.5,17
70,72.5,18
75,72.5,19
80,72.5,19
85,72.5,20
90,72.5,20
95,72.5,20
100,72.5,20
105,72.5,20
110,72.5,19
115,72.5,19
120,72.5,18
125,72.5,18
130,72.5,17
135,72.5,16
140,72.5,16
145,72.5,15
150,72.5,15
155,72.5,15
160,72.5,17
165,72.5,18
170,72.5,20
175,72.5,23
180,72.5,26
-180,70,26
-175,70,30
-170,70,33
-165,70,37
-160,70,40
-155,70,43
-150,70,45
-145,70,48
-140,70,51
-135,70,53
-130,70,55
-125,70,58
-120,70,58
-115,70,59
-110,70,60
-105,70,59
-100,70,57
-95,70,56
-90,70,54
-85,70,51
-80,70,47
-75,70,42
-70,70,39
-65,70,33
-60,70,28
-55,70,24
-50,70,21
-45,70,18
-40,70,16
-35,70,13
-30,70,12
-25,70,11
-20,70,12
-15,70,13
-10,70,14
-5,70,14
0,70,15
5,70,14
10,70,13
15,70,13
20,70,12
25,70,11
30,70,10
35,70,10
40,70,10
45,70,10
50,70,11
55,70,11
60,70,12
65,70,14
70,70,16
75,70,17
80,70,17
85,70,18
90,70,18
95,70,18
100,70,18
105,70,18
110,70,17
115,70,17
120,70,16
125,70,16
130,70,16
135,70,15
140,70,15
145,70,14
150,70,14
155,70,14
160,70,15
165,70,17
170,70,19
175,70,23
180,70,26
-180,67.5,28
-175,67.5,32
-170,67.5,36
-165,67.5,40
-160,67.5,43
-155,67.5,46
-150,67.5,48
-145,67.5,50
-140,67.5,53
-135,67.5,55
-130,67.5,57
-125,67.5,59
-120,67.5,60
-115,67.5,61
-110,67.5,61
-105,67.5,60
-100,67.5,60
-95,67.5,59
-90,67.5,56
-85,67.5,54
-80,67.5,50
-75,67.5,46
-70,67.5,43
-65,67.5,37
-60,67.5,31
-55,67.5,27
-50,67.5,23
-45,67.5,20
-40,67.5,18
-35,67.5,16
-30,67.5,15
-25,67.5,13
-20,67.5,13
-15,67.5,13
-10,67.5,13
-5,67.5,13
0,67.5,13
5,67.5,13
10,67.5,12
15,67.5,11
20,67.5,10
25,67.5,9
30,67.5,8
35,67.5,8
40,67.5,9
45,67.5,8
50,67.5,9
55,67.5,9
60,67.5,11
65,67.5,13
70,67.5,15
75,67.5,16
80,67.5,17
85,67.5,17
90,67.5,17
95,67.5,18
100,67.5,18
105,67.5,17
110,67.5,17
115,67.5,17
120,67.5,17
125,67.5,17
130,67.5,17
135,67.5,17
140,67.5,16
145,67.5,16
150,67.5,15
155,67.5,16
160,67.5,16
165,67.5,19
170,67.5,21
175,67.5,25
180,67.5,28
-180,65,33
-175,65,38
-170,65,43
-165,65,46
-160,65,49
-155,65,52
-150,65,53
-145,65,55
-140,65,56
-135,65,58
-130,65,60
-125,65,61
-120,65,62
-115,65,63
-110,65,63
-105,65,62
-100,65,62
-95,65,61
-90,65,59
-85,65,57
-80,65,54
-75,65,50
-70,65,47
-65,65,41
-60,65,35
-55,65,31
-50,65,27
-45,65,24
-40,65,21
-35,65,19
-30,65,17
-25,65,16
-20,65,15
-15,65,14
-10,65,14
-5,65,13
0,65,12
5,65,12
10,65,11
15,65,10
20,65,9
25,65,9
30,65,8
35,65,8
40,65,8
45,65,9
50,65,8
55,65,9
60,65,11
65,65,14
70,65,15
75,65,16
80,65,17
85,65,17
90,65,18
95,65,18
100,65,18
105,65,18
110,65,18
115,65,19
120,65,19
125,65,19
130,65,20
135,65,20
140,65,20
145,65,19
150,65,19
155,65,20
160,65,20
165,65,23
170,65,25
175,65,29
180,65,33
-180,62.5,41
-175,62.5,46
-170,62.5,52
-165,62.5,55
-160,62.5,57
-155,62.5,60
-150,62.5,61
-145,62.5,61
-140,62.5,62
-135,62.5,64
-130,62.5,65
-125,62.5,66
-120,62.5,67
-115,62.5,67
-110,62.5,66
-105,62.5,66
-100,62.5,64
-95,62.5,63
-90,62.5,63
-85,62.5,60
-80,62.5,57
-75,62.5,54
-70,62.5,51
-65,62.5,45
-60,62.5,41
-55,62.5,36
-50,62.5,32
-45,62.5,29
-40,62.5,26
-35,62.5,24
-30,62.5,21
-25,62.5,19
-20,62.5,17
-15,62.5,16
-10,62.5,14
-5,62.5,14
0,62.5,13
5,62.5,12
10,62.5,12
15,62.5,11
20,62.5,10
25,62.5,10
30,62.5,9
35,62.5,9
40,62.5,10
45,62.5,11
50,62.5,12
55,62.5,14
60,62.5,16
65,62.5,17
70,62.5,19
75,62.5,19
80,62.5,19
85,62.5,19
90,62.5,20
95,62.5,21
100,62.5,21
105,62.5,21
110,62.5,21
115,62.5,22
120,62.5,23
125,62.5,24
130,62.5,24
135,62.5,25
140,62.5,25
145,62.5,24
150,62.5,24
155,62.5,25
160,62.5,26
165,62.5,28
170,62.5,31
175,62.5,37
180,62.5,41
-180,60,50
-175,60,56
-170,60,61
-165,60,66
-160,60,68
-155,60,69
-150,60,69
-145,60,70
-140,60,70
-135,60,71
-130,60,72
-125,60,73
-120,60,72
-115,60,71
-110,60,71
-105,60,69
-100,60,68
-95,60,66
-90,60,65
-85,60,64
-80,60,60
-75,60,57
-70,60,54
-65,60,49
-60,60,45
-55,60,43
-50,60,38
-45,60,35
-40,60,32
-35,60,29
-30,60,25
-25,60,22
-20,60,20
-15,60,18
-10,60,16
-5,60,15
0,60,15
5,60,14
10,60,14
15,60,14
20,60,14
25,60,14
30,60,15
35,60,16
40,60,17
45,60,19
50,60,20
55,60,21
60,60,22
65,60,23
70,60,24
75,60,24
80,60,23
85,60,23
90,60,24
95,60,24
100,60,25
105,60,25
110,60,26
115,60,27
120,60,28
125,60,30
130,60,31
135,60,31
140,60,31
145,60,31
150,60,30
155,60,31
160,60,33
165,60,35
170,60,39
175,60,45
180,60,50
-180,57.5,60
-175,57.5,66
-170,57.5,71
-165,57.5,76
-160,57.5,78
-155,57.5,79
-150,57.5,80
-145,57.5,79
-140,57.5,79
-135,57.5,79
-130,57.5,81
-125,57.5,80
-120,57.5,79
-115,57.5,78
-110,57.5,76
-105,57.5,73
-100,57.5,71
-95,57.5,69
-90,57.5,67
-85,57.5,65
-80,57.5,62
-75,57.5,59
-70,57.5,57
-65,57.5,53
-60,57.5,50
-55,57.5,48
-50,57.5,43
-45,57.5,40
-40,57.5,38
-35,57.5,34
-30,57.5,30
-25,57.5,26
-20,57.5,24
-15,57.5,21
-10,57.5,20
-5,57.5,19
0,57.5,19
5,57.5,18
10,57.5,19
15,57.5,20
20,57.5,22
25,57.5,23
30,57.5,25
35,57.5,26
40,57.5,28
45,57.5,29
50,57.5,30
55,57.5,30
60,57.5,30
65,57.5,31
70,57.5,31
75,57.5,31
80,57.5,30
85,57.5,30
90,57.5,30
95,57.5,30
100,57.5,30
105,57.5,31
110,57.5,32
115,57.5,34
120,57.5,35
125,57.5,37
130,57.5,38
135,57.5,39
140,57.5,40
145,57.5,39
150,57.5,38
155,57.5,38
160,57.5,39
165,57.5,42
170,57.5,47
175,57.5,53
180,57.5,60
-180,55,68
-175,55,74
-170,55,80
-165,55,85
-160,55,87
-155,55,88
-150,55,88
-145,55,89
-140,55,88
-135,55,88
-130,55,88
-125,55,88
-120,55,86
-115,55,84
-110,55,81
-105,55,78
-100,55,75
-95,55,72
-90,55,69
-85,55,67
-80,55,64
-75,55,61
-70,55,59
-65,55,56
-60,55,54
-55,55,52
-50,55,49
-45,55,46
-40,55,43
-35,55,39
-30,55,34
-25,55,31
-20,55,28
-15,55,26
-10,55,24
-5,55,24
0,55,24
5,55,25
10,55,27
15,55,30
20,55,33
25,55,35
30,55,38
35,55,39
40,55,40
45,55,41
50,55,41
55,55,41
60,55,40
65,55,40
70,55,39
75,55,38
80,55,37
85,55,37
90,55,37
95,55,37
100,55,38
105,55,39
110,55,40
115,55,42
120,55,43
125,55,44
130,55,46
135,55,48
140,55,48
145,55,48
150,55,46
155,55,46
160,55,46
165,55,50
170,55,55
175,55,61
180,55,68
-180,52.5,75
-175,52.5,82
-170,52.5,88
-165,52.5,92
-160,52.5,95
-155,52.5,97
-150,52.5,98
-145,52.5,97
-140,52.5,97
-135,52.5,96
-130,52.5,95
-125,52.5,94
-120,52.5,91
-115,52.5,88
-110,52.5,85
-105,52.5,81
-100,52.5,78
-95,52.5,75
-90,52.5,71
-85,52.5,68
-80,52.5,65
-75,52.5,63
-70,52.5,61
-65,52.5,60
-60,52.5,59
-55,52.5,57
-50,52.5,55
-45,52.5,52
-40,52.5,49
-35,52.5,45
-30,52.5,40
-25,52.5,36
-20,52.5,34
-15,52.5,31
-10,52.5,31
-5,52.5,31
0,52.5,31
5,52.5,33
10,52.5,37
15,52.5,40
20,52.5,44
25,52.5,48
30,52.5,51
35,52.5,51
40,52.5,52
45,52.5,52
50,52.5,51
55,52.5,50
60,52.5,49
65,52.5,48
70,52.5,47
75,52.5,45
80,52.5,44
85,52.5,43
90,52.5,44
95,52.5,45
100,52.5,46
105,52.5,47
110,52.5,48
115,52.5,50
120,52.5,51
125,52.5,53
130,52.5,54
135,52.5,54
140,52.5,55
145,52.5,55
150,52.5,53
155,52.5,53
160,52.5,54
165,52.5,57
170,52.5,63
175,52.5,68
180,52.5,75
-180,50,80
-175,50,87
-170,50,93
-165,50,98
-160,50,102
-155,50,104
-150,50,105
-145,50,106
-140,50,104
-135,50,103
-130,50,101
-125,50,99
-120,50,96
-115,50,92
-110,50,89
-105,50,85
-100,50,81
-95,50,77
-90,50,74
-85,50,71
-80,50,68
-75,50,66
-70,50,65
-65,50,65
-60,50,64
-55,50,64
-50,50,61
-45,50,59
-40,50,55
-35,50,50
-30,50,45
-25,50,41
-20,50,38
-15,50,37
-10,50,37
-5,50,38
0,50,39
5,50,42
10,50,45
15,50,50
20,50,55
25,50,59
30,50,62
35,50,63
40,50,63
45,50,62
50,50,59
55,50,58
60,50,56
65,50,54
70,50,53
75,50,52
80,50,50
85,50,50
90,50,50
95,50,51
100,50,53
105,50,54
110,50,55
115,50,56
120,50,58
125,50,59
130,50,60
135,50,61
140,50,60
145,50,59
150,50,57
155,50,57
160,50,58
165,50,62
170,50,67
175,50,73
180,50,80
-180,47.5,83
-175,47.5,90
-170,47.5,96
-165,47.5,101
-160,47.5,106
-155,47.5,110
-150,47.5,111
-145,47.5,112
-140,47.5,111
-135,47.5,109
-130,47.5,106
-125,47.5,103
-120,47.5,100
-115,47.5,96
-110,47.5,92
-105,47.5,89
-100,47.5,85
-95,47.5,81
-90,47.5,78
-85,47.5,74
-80,47.5,72
-75,47.5,70
-70,47.5,70
-65,47.5,71
-60,47.5,71
-55,47.5,71
-50,47.5,68
-45,47.5,65
-40,47.5,60
-35,47.5,54
-30,47.5,49
-25,47.5,45
-20,47.5,43
-15,47.5,42
-10,47.5,43
-5,47.5,44
0,47.5,47
5,47.5,50
10,47.5,53
15,47.5,58
20,47.5,63
25,47.5,68
30,47.5,71
35,47.5,71
40,47.5,71
45,47.5,69
50,47.5,67
55,47.5,65
60,47.5,64
65,47.5,61
70,47.5,60
75,47.5,58
80,47.5,57
85,47.5,56
90,47.5,56
95,47.5,56
100,47.5,58
105,47.5,59
110,47.5,60
115,47.5,61
120,47.5,63
125,47.5,64
130,47.5,64
135,47.5,64
140,47.5,62
145,47.5,61
150,47.5,58
155,47.5,58
160,47.5,60
165,47.5,63
170,47.5,69
175,47.5,76
180,47.5,83
-180,45,84
-175,45,91
-170,45,97
-165,45,103
-160,45,108
-155,45,112
-150,45,116
-145,45,117
-140,45,115
-135,45,113
-130,45,110
-125,45,107
-120,45,103
-115,45,100
-110,45,97
-105,45,93
-100,45,89
-95,45,86
-90,45,82
-85,45,79
-80,45,77
-75,45,77
-70,45,77
-65,45,79
-60,45,79
-55,45,79
-50,45,75
-45,45,71
-40,45,65
-35,45,58
-30,45,52
-25,45,49
-20,45,47
-15,45,47
-10,45,49
-5,45,51
0,45,53
5,45,56
10,45,59
15,45,63
20,45,68
25,45,73
30,45,76
35,45,76
40,45,76
45,45,74
50,45,72
55,45,71
60,45,70
65,45,67
70,45,66
75,45,65
80,45,63
85,45,62
90,45,61
95,45,60
100,45,61
105,45,61
110,45,63
115,45,64
120,45,65
125,45,66
130,45,66
135,45,66
140,45,64
145,45,61
150,45,59
155,45,58
160,45,60
165,45,65
170,45,71
175,45,77
180,45,84
-180,42.5,85
-175,42.5,91
-170,42.5,96
-165,42.5,102
-160,42.5,108
-155,42.5,113
-150,42.5,118
-145,42.5,120
-140,42.5,119
-135,42.5,117
-130,42.5,114
-125,42.5,110
-120,42.5,107
-115,42.5,104
-110,42.5,101
-105,42.5,98
-100,42.5,94
-95,42.5,91
-90,42.5,88
-85,42.5,86
-80,42.5,85
-75,42.5,85
-70,42.5,86
-65,42.5,88
-60,42.5,88
-55,42.5,87
-50,42.5,82
-45,42.5,75
-40,42.5,68
-35,42.5,61
-30,42.5,55
-25,42.5,52
-20,42.5,51
-15,42.5,52
-10,42.5,54
-5,42.5,56
0,42.5,59
5,42.5,61
10,42.5,64
15,42.5,67
20,42.5,72
25,42.5,76
30,42.5,78
35,42.5,79
40,42.5,79
45,42.5,78
50,42.5,77
55,42.5,76
60,42.5,74
65,42.5,72
70,42.5,71
75,42.5,70
80,42.5,68
85,42.5,66
90,42.5,64
95,42.5,62
100,42.5,62
105,42.5,63
110,42.5,63
115,42.5,64
120,42.5,65
125,42.5,66
130,42.5,66
135,42.5,66
140,42.5,65
145,42.5,62
150,42.5,60
155,42.5,60
160,42.5,62
165,42.5,67
170,42.5,73
175,42.5,79
180,42.5,85
-180,40,86
-175,40,91
-170,40,95
-165,40,100
-160,40,106
-155,40,112
-150,40,117
-145,40,120
-140,40,121
-135,40,119
-130,40,117
-125,40,114
-120,40,111
-115,40,109
-110,40,105
-105,40,103
-100,40,100
-95,40,97
-90,40,95
-85,40,94
-80,40,93
-75,40,94
-70,40,95
-65,40,97
-60,40,97
-55,40,94
-50,40,88
-45,40,80
-40,40,71
-35,40,63
-30,40,59
-25,40,56
-20,40,55
-15,40,57
-10,40,59
-5,40,61
0,40,63
5,40,65
10,40,67
15,40,70
20,40,74
25,40,76
30,40,79
35,40,80
40,40,81
45,40,80
50,40,80
55,40,79
60,40,78
65,40,76
70,40,74
75,40,72
80,40,71
85,40,68
90,40,65
95,40,62
100,40,62
105,40,62
110,40,62
115,40,62
120,40,63
125,40,64
130,40,65
135,40,65
140,40,64
145,40,62
150,40,61
155,40,62
160,40,64
165,40,69
170,40,76
175,40,82
180,40,86
-180,37.5,90
-175,37.5,93
-170,37.5,95
-165,37.5,99
-160,37.5,104
-155,37.5,110
-150,37.5,116
-145,37.5,119
-140,37.5,121
-135,37.5,121
-130,37.5,119
-125,37.5,117
-120,37.5,115
-115,37.5,113
-110,37.5,110
-105,37.5,108
-100,37.5,106
-95,37.5,104
-90,37.5,102
-85,37.5,101
-80,37.5,101
-75,37.5,102
-70,37.5,103
-65,37.5,105
-60,37.5,105
-55,37.5,100
-50,37.5,92
-45,37.5,83
-40,37.5,73
-35,37.5,66
-30,37.5,61
-25,37.5,60
-20,37.5,60
-15,37.5,61
-10,37.5,63
-5,37.5,65
0,37.5,67
5,37.5,69
10,37.5,70
15,37.5,73
20,37.5,75
25,37.5,78
30,37.5,80
35,37.5,82
40,37.5,83
45,37.5,82
50,37.5,82
55,37.5,82
60,37.5,80
65,37.5,78
70,37.5,76
75,37.5,73
80,37.5,71
85,37.5,67
90,37.5,64
95,37.5,62
100,37.5,61
105,37.5,60
110,37.5,60
115,37.5,60
120,37.5,61
125,37.5,63
130,37.5,64
135,37.5,64
140,37.5,63
145,37.5,60
150,37.5,60
155,37.5,63
160,37.5,67
165,37.5,73
170,37.5,79
175,37.5,85
180,37.5,90
-180,35,93
-175,35,95
-170,35,97
-165,35,100
-160,35,104
-155,35,109
-150,35,113
-145,35,117
-140,35,120
-135,35,122
-130,35,120
-125,35,119
-120,35,117
-115,35,116
-110,35,114
-105,35,113
-100,35,111
-95,35,110
-90,35,109
-85,35,109
-80,35,109
-75,35,110
-70,35,111
-65,35,112
-60,35,109
-55,35,105
-50,35,96
-45,35,87
-40,35,76
-35,35,69
-30,35,66
-25,35,65
-20,35,65
-15,35,66
-10,35,67
-5,35,69
0,35,71
5,35,73
10,35,74
15,35,76
20,35,78
25,35,80
30,35,81
35,35,82
40,35,83
45,35,83
50,35,83
55,35,82
60,35,81
65,35,77
70,35,74
75,35,72
80,35,69
85,35,66
90,35,63
95,35,61
100,35,60
105,35,59
110,35,58
115,35,58
120,35,60
125,35,61
130,35,62
135,35,62
140,35,61
145,35,59
150,35,60
155,35,64
160,35,70
165,35,76
170,35,83
175,35,89
180,35,93
-180,32.5,98
-175,32.5,100
-170,32.5,101
-165,32.5,103
-160,32.5,105
-155,32.5,108
-150,32.5,112
-145,32.5,116
-140,32.5,119
-135,32.5,121
-130,32.5,121
-125,32.5,119
-120,32.5,119
-115,32.5,118
-110,32.5,117
-105,32.5,116
-100,32.5,115
-95,32.5,114
-90,32.5,115
-85,32.5,115
-80,32.5,116
-75,32.5,116
-70,32.5,117
-65,32.5,116
-60,32.5,114
-55,32.5,109
-50,32.5,101
-45,32.5,91
-40,32.5,82
-35,32.5,75
-30,32.5,72
-25,32.5,71
-20,32.5,71
-15,32.5,72
-10,32.5,73
-5,32.5,74
0,32.5,77
5,32.5,78
10,32.5,79
15,32.5,80
20,32.5,81
25,32.5,82
30,32.5,82
35,32.5,82
40,32.5,83
45,32.5,82
50,32.5,82
55,32.5,81
60,32.5,78
65,32.5,73
70,32.5,70
75,32.5,68
80,32.5,66
85,32.5,64
90,32.5,62
95,32.5,61
100,32.5,60
105,32.5,58
110,32.5,57
115,32.5,57
120,32.5,58
125,32.5,60
130,32.5,60
135,32.5,59
140,32.5,58
145,32.5,57
150,32.5,59
155,32.5,64
160,32.5,72
165,32.5,80
170,32.5,87
175,32.5,94
180,32.5,98
-180,30,104
-175,30,106
-170,30,108
-165,30,108
-160,30,109
-155,30,110
-150,30,112
-145,30,115
-140,30,118
-135,30,120
-130,30,121
-125,30,120
-120,30,120
-115,30,120
-110,30,119
-105,30,118
-100,30,118
-95,30,118
-90,30,119
-85,30,120
-80,30,122
-75,30,122
-70,30,121
-65,30,120
-60,30,117
-55,30,112
-50,30,105
-45,30,97
-40,30,89
-35,30,82
-30,30,79
-25,30,79
-20,30,79
-15,30,79
-10,30,79
-5,30,81
0,30,83
5,30,84
10,30,84
15,30,84
20,30,84
25,30,84
30,30,82
35,30,82
40,30,81
45,30,81
50,30,80
55,30,77
60,30,74
65,30,69
70,30,65
75,30,63
80,30,61
85,30,61
90,30,60
95,30,60
100,30,58
105,30,57
110,30,56
115,30,56
120,30,57
125,30,58
130,30,58
135,30,56
140,30,55
145,30,55
150,30,58
155,30,65
160,30,73
165,30,83
170,30,93
175,30,100
180,30,104
-180,27.5,113
-175,27.5,117
-170,27.5,118
-165,27.5,118
-160,27.5,118
-155,27.5,117
-150,27.5,118
-145,27.5,118
-140,27.5,120
-135,27.5,122
-130,27.5,123
-125,27.5,122
-120,27.5,121
-115,27.5,120
-110,27.5,121
-105,27.5,120
-100,27.5,120
-95,27.5,120
-90,27.5,122
-85,27.5,125
-80,27.5,126
-75,27.5,125
-70,27.5,124
-65,27.5,123
-60,27.5,120
-55,27.5,115
-50,27.5,109
-45,27.5,103
-40,27.5,97
-35,27.5,92
-30,27.5,90
-25,27.5,89
-20,27.5,88
-15,27.5,87
-10,27.5,87
-5,27.5,88
0,27.5,89
5,27.5,89
10,27.5,89
15,27.5,88
20,27.5,88
25,27.5,86
30,27.5,82
35,27.5,80
40,27.5,79
45,27.5,77
50,27.5,76
55,27.5,73
60,27.5,69
65,27.5,64
70,27.5,60
75,27.5,57
80,27.5,56
85,27.5,56
90,27.5,57
95,27.5,57
100,27.5,57
105,27.5,56
110,27.5,55
115,27.5,55
120,27.5,55
125,27.5,55
130,27.5,55
135,27.5,54
140,27.5,52
145,27.5,53
150,27.5,57
155,27.5,65
160,27.5,75
165,27.5,86
170,27.5,97
175,27.5,106
180,27.5,113
-180,25,121
-175,25,127
-170,25,131
-165,25,132
-160,25,132
-155,25,131
-150,25,130
-145,25,129
-140,25,128
-135,25,128
-130,25,128
-125,25,125
-120,25,124
-115,25,123
-110,25,122
-105,25,122
-100,25,121
-95,25,122
-90,25,125
-85,25,128
-80,25,130
-75,25,130
-70,25,127
-65,25,126
-60,25,123
-55,25,120
-50,25,116
-45,25,111
-40,25,107
-35,25,105
-30,25,103
-25,25,101
-20,25,99
-15,25,96
-10,25,96
-5,25,96
0,25,96
5,25,96
10,25,96
15,25,95
20,25,93
25,25,88
30,25,81
35,25,78
40,25,76
45,25,73
50,25,71
55,25,68
60,25,64
65,25,59
70,25,55
75,25,52
80,25,51
85,25,52
90,25,54
95,25,54
100,25,54
105,25,53
110,25,52
115,25,53
120,25,52
125,25,52
130,25,52
135,25,50
140,25,49
145,25,50
150,25,54
155,25,64
160,25,76
165,25,88
170,25,100
175,25,112
180,25,121
-180,22.5,128
-175,22.5,138
-170,22.5,144
-165,22.5,149
-160,22.5,151
-155,22.5,150
-150,22.5,148
-145,22.5,146
-140,22.5,143
-135,22.5,141
-130,22.5,138
-125,22.5,134
-120,22.5,131
-115,22.5,128
-110,22.5,126
-105,22.5,124
-100,22.5,122
-95,22.5,124
-90,22.5,128
-85,22.5,132
-80,22.5,134
-75,22.5,133
-70,22.5,130
-65,22.5,129
-60,22.5,129
-55,22.5,128
-50,22.5,126
-45,22.5,123
-40,22.5,121
-35,22.5,119
-30,22.5,117
-25,22.5,114
-20,22.5,110
-15,22.5,106
-10,22.5,104
-5,22.5,104
0,22.5,105
5,22.5,103
10,22.5,100
15,22.5,98
20,22.5,95
25,22.5,87
30,22.5,80
35,22.5,75
40,22.5,72
45,22.5,69
50,22.5,67
55,22.5,63
60,22.5,60
65,22.5,55
70,22.5,50
75,22.5,48
80,22.5,47
85,22.5,48
90,22.5,49
95,22.5,50
100,22.5,50
105,22.5,49
110,22.5,48
115,22.5,48
120,22.5,48
125,22.5,48
130,22.5,48
135,22.5,46
140,22.5,45
145,22.5,47
150,22.5,53
155,22.5,63
160,22.5,76
165,22.5,89
170,22.5,102
175,22.5,116
180,22.5,128
-180,20,133
-175,20,146
-170,20,157
-165,20,166
-160,20,171
-155,20,173
-150,20,172
-145,20,170
-140,20,165
-135,20,160
-130,20,155
-125,20,149
-120,20,143
-115,20,137
-110,20,132
-105,20,128
-100,20,125
-95,20,127
-90,20,130
-85,20,135
-80,20,137
-75,20,137
-70,20,134
-65,20,134
-60,20,135
-55,20,138
-50,20,138
-45,20,138
-40,20,140
-35,20,136
-30,20,135
-25,20,129
-20,20,123
-15,20,118
-10,20,114
-5,20,113
0,20,111
5,20,106
10,20,100
15,20,96
20,20,92
25,20,85
30,20,78
35,20,73
40,20,69
45,20,66
50,20,63
55,20,59
60,20,57
65,20,52
70,20,49
75,20,46
80,20,45
85,20,45
90,20,47
95,20,47
100,20,46
105,20,45
110,20,44
115,20,43
120,20,44
125,20,44
130,20,43
135,20,42
140,20,43
145,20,46
150,20,53
155,20,64
160,20,78
165,20,91
170,20,104
175,20,119
180,20,133
-180,17.5,139
-175,17.5,154
-170,17.5,168
-165,17.5,181
-160,17.5,190
-155,17.5,196
-150,17.5,197
-145,17.5,196
-140,17.5,192
-135,17.5,185
-130,17.5,178
-125,17.5,170
-120,17.5,160
-115,17.5,151
-110,17.5,143
-105,17.5,136
-100,17.5,131
-95,17.5,130
-90,17.5,133
-85,17.5,137
-80,17.5,140
-75,17.5,139
-70,17.5,138
-65,17.5,140
-60,17.5,144
-55,17.5,149
-50,17.5,153
-45,17.5,155
-40,17.5,157
-35,17.5,157
-30,17.5,154
-25,17.5,147
-20,17.5,138
-15,17.5,129
-10,17.5,122
-5,17.5,116
0,17.5,109
5,17.5,100
10,17.5,94
15,17.5,90
20,17.5,87
25,17.5,83
30,17.5,78
35,17.5,73
40,17.5,69
45,17.5,65
50,17.5,61
55,17.5,58
60,17.5,56
65,17.5,53
70,17.5,49
75,17.5,47
80,17.5,45
85,17.5,44
90,17.5,45
95,17.5,45
100,17.5,44
105,17.5,42
110,17.5,41
115,17.5,40
120,17.5,39
125,17.5,40
130,17.5,39
135,17.5,40
140,17.5,41
145,17.5,46
150,17.5,54
155,17.5,68
160,17.5,81
165,17.5,95
170,17.5,108
175,17.5,123
180,17.5,139
-180,15,144
-175,15,161
-170,15,179
-165,15,194
-160,15,206
-155,15,215
-150,15,220
-145,15,223
-140,15,219
-135,15,213
-130,15,205
-125,15,195
-120,15,184
-115,15,170
-110,15,157
-105,15,147
-100,15,138
-95,15,134
-90,15,135
-85,15,138
-80,15,141
-75,15,142
-70,15,143
-65,15,147
-60,15,154
-55,15,163
-50,15,170
-45,15,174
-40,15,176
-35,15,174
-30,15,170
-25,15,164
-20,15,148
-15,15,135
-10,15,124
-5,15,114
0,15,103
5,15,93
10,15,88
15,15,85
20,15,84
25,15,83
30,15,81
35,15,77
40,15,72
45,15,67
50,15,62
55,15,58
60,15,56
65,15,54
70,15,51
75,15,49
80,15,46
85,15,44
90,15,45
95,15,44
100,15,42
105,15,40
110,15,38
115,15,37
120,15,36
125,15,36
130,15,37
135,15,37
140,15,40
145,15,46
150,15,57
155,15,71
160,15,86
165,15,100
170,15,114
175,15,128
180,15,144
-180,12.5,150
-175,12.5,167
-170,12.5,187
-165,12.5,205
-160,12.5,220
-155,12.5,230
-150,12.5,240
-145,12.5,246
-140,12.5,246
-135,12.5,241
-130,12.5,235
-125,12.5,221
-120,12.5,206
-115,12.5,192
-110,12.5,174
-105,12.5,159
-100,12.5,147
-95,12.5,140
-90,12.5,138
-85,12.5,140
-80,12.5,143
-75,12.5,144
-70,12.5,147
-65,12.5,154
-60,12.5,165
-55,12.5,176
-50,12.5,186
-45,12.5,192
-40,12.5,191
-35,12.5,188
-30,12.5,183
-25,12.5,172
-20,12.5,153
-15,12.5,137
-10,12.5,122
-5,12.5,110
0,12.5,99
5,12.5,89
10,12.5,85
15,12.5,84
20,12.5,85
25,12.5,87
30,12.5,87
35,12.5,84
40,12.5,78
45,12.5,71
50,12.5,64
55,12.5,59
60,12.5,57
65,12.5,56
70,12.5,54
75,12.5,50
80,12.5,47
85,12.5,46
90,12.5,45
95,12.5,44
100,12.5,41
105,12.5,39
110,12.5,36
115,12.5,35
120,12.5,34
125,12.5,34
130,12.5,34
135,12.5,34
140,12.5,38
145,12.5,45
150,12.5,58
155,12.5,74
160,12.5,90
165,12.5,105
170,12.5,120
175,12.5,134
180,12.5,150
-180,10,156
-175,10,172
-170,10,192
-165,10,211
-160,10,226
-155,10,238
-150,10,249
-145,10,257
-140,10,262
-135,10,262
-130,10,254
-125,10,243
-120,10,229
-115,10,213
-110,10,194
-105,10,174
-100,10,157
-95,10,146
-90,10,141
-85,10,141
-80,10,143
-75,10,147
-70,10,153
-65,10,161
-60,10,173
-55,10,187
-50,10,198
-45,10,204
-40,10,203
-35,10,197
-30,10,189
-25,10,176
-20,10,156
-15,10,137
-10,10,121
-5,10,108
0,10,98
5,10,90
10,10,88
15,10,89
20,10,91
25,10,95
30,10,96
35,10,93
40,10,86
45,10,76
50,10,67
55,10,61
60,10,58
65,10,57
70,10,55
75,10,51
80,10,48
85,10,46
90,10,45
95,10,45
100,10,43
105,10,40
110,10,37
115,10,35
120,10,35
125,10,34
130,10,32
135,10,34
140,10,37
145,10,46
150,10,60
155,10,76
160,10,94
165,10,110
170,10,125
175,10,140
180,10,156
-180,7.5,161
-175,7.5,177
-170,7.5,195
-165,7.5,212
-160,7.5,223
-155,7.5,233
-150,7.5,244
-145,7.5,257
-140,7.5,267
-135,7.5,270
-130,7.5,267
-125,7.5,258
-120,7.5,245
-115,7.5,230
-110,7.5,212
-105,7.5,189
-100,7.5,168
-95,7.5,153
-90,7.5,145
-85,7.5,144
-80,7.5,146
-75,7.5,151
-70,7.5,159
-65,7.5,168
-60,7.5,181
-55,7.5,197
-50,7.5,209
-45,7.5,214
-40,7.5,213
-35,7.5,207
-30,7.5,196
-25,7.5,179
-20,7.5,159
-15,7.5,139
-10,7.5,124
-5,7.5,112
0,7.5,103
5,7.5,98
10,7.5,97
15,7.5,99
20,7.5,103
25,7.5,106
30,7.5,108
35,7.5,105
40,7.5,96
45,7.5,83
50,7.5,72
55,7.5,63
60,7.5,59
65,7.5,57
70,7.5,54
75,7.5,50
80,7.5,47
85,7.5,46
90,7.5,46
95,7.5,47
100,7.5,47
105,7.5,45
110,7.5,42
115,7.5,39
120,7.5,37
125,7.5,35
130,7.5,35
135,7.5,35
140,7.5,39
145,7.5,48
150,7.5,61
155,7.5,78
160,7.5,97
165,7.5,114
170,7.5,130
175,7.5,146
180,7.5,161
-180,5,167
-175,5,182
-170,5,198
-165,5,210
-160,5,219
-155,5,225
-150,5,234
-145,5,247
-140,5,258
-135,5,267
-130,5,269
-125,5,264
-120,5,253
-115,5,241
-110,5,225
-105,5,202
-100,5,179
-95,5,161
-90,5,150
-85,5,148
-80,5,151
-75,5,157
-70,5,166
-65,5,177
-60,5,191
-55,5,207
-50,5,219
-45,5,224
-40,5,223
-35,5,216
-30,5,203
-25,5,184
-20,5,163
-15,5,144
-10,5,130
-5,5,121
0,5,115
5,5,113
10,5,112
15,5,114
20,5,117
25,5,120
30,5,120
35,5,116
40,5,107
45,5,92
50,5,77
55,5,65
60,5,59
65,5,54
70,5,52
75,5,49
80,5,47
85,5,47
90,5,49
95,5,51
100,5,52
105,5,51
110,5,49
115,5,45
120,5,42
125,5,40
130,5,38
135,5,38
140,5,42
145,5,51
150,5,64
155,5,82
160,5,100
165,5,117
170,5,134
175,5,150
180,5,167
-180,2.5,171
-175,2.5,188
-170,2.5,201
-165,2.5,212
-160,2.5,217
-155,2.5,221
-150,2.5,227
-145,2.5,237
-140,2.5,247
-135,2.5,257
-130,2.5,262
-125,2.5,260
-120,2.5,254
-115,2.5,246
-110,2.5,233
-105,2.5,212
-100,2.5,189
-95,2.5,169
-90,2.5,156
-85,2.5,154
-80,2.5,157
-75,2.5,165
-70,2.5,175
-65,2.5,187
-60,2.5,203
-55,2.5,218
-50,2.5,229
-45,2.5,234
-40,2.5,232
-35,2.5,224
-30,2.5,210
-25,2.5,191
-20,2.5,169
-15,2.5,150
-10,2.5,139
-5,2.5,132
0,2.5,129
5,2.5,129
10,2.5,129
15,2.5,130
20,2.5,132
25,2.5,131
30,2.5,129
35,2.5,124
40,2.5,115
45,2.5,100
50,2.5,83
55,2.5,65
60,2.5,57
65,2.5,52
70,2.5,49
75,2.5,48
80,2.5,48
85,2.5,48
90,2.5,52
95,2.5,55
100,2.5,58
105,2.5,57
110,2.5,55
115,2.5,51
120,2.5,47
125,2.5,43
130,2.5,42
135,2.5,41
140,2.5,46
145,2.5,55
150,2.5,68
155,2.5,84
160,2.5,101
165,2.5,119
170,2.5,137
175,2.5,155
180,2.5,171
-180,0,174
-175,0,192
-170,0,207
-165,0,217
-160,0,222
-155,0,224
-150,0,227
-145,0,232
-140,0,239
-135,0,246
-130,0,251
-125,0,252
-120,0,250
-115,0,245
-110,0,237
-105,0,221
-100,0,199
-95,0,179
-90,0,166
-85,0,162
-80,0,166
-75,0,175
-70,0,186
-65,0,199
-60,0,215
-55,0,232
-50,0,241
-45,0,245
-40,0,243
-35,0,234
-30,0,219
-25,0,198
-20,0,176
-15,0,158
-10,0,148
-5,0,145
0,0,144
5,0,144
10,0,143
15,0,142
20,0,140
25,0,137
30,0,133
35,0,128
40,0,120
45,0,106
50,0,88
55,0,70
60,0,60
65,0,50
70,0,48
75,0,46
80,0,47
85,0,50
90,0,54
95,0,57
100,0,61
105,0,62
110,0,59
115,0,55
120,0,50
125,0,46
130,0,44
135,0,45
140,0,49
145,0,58
150,0,70
155,0,85
160,0,101
165,0,119
170,0,138
175,0,157
180,0,174
-180,-2.5,176
-175,-2.5,196
-170,-2.5,213
-165,-2.5,225
-160,-2.5,230
-155,-2.5,233
-150,-2.5,233
-145,-2.5,234
-140,-2.5,237
-135,-2.5,241
-130,-2.5,244
-125,-2.5,245
-120,-2.5,245
-115,-2.5,243
-110,-2.5,239
-105,-2.5,228
-100,-2.5,209
-95,-2.5,192
-90,-2.5,179
-85,-2.5,175
-80,-2.5,178
-75,-2.5,188
-70,-2.5,199
-65,-2.5,213
-60,-2.5,231
-55,-2.5,245
-50,-2.5,254
-45,-2.5,257
-40,-2.5,254
-35,-2.5,244
-30,-2.5,227
-25,-2.5,205
-20,-2.5,182
-15,-2.5,166
-10,-2.5,157
-5,-2.5,154
0,-2.5,154
5,-2.5,154
10,-2.5,152
15,-2.5,148
20,-2.5,142
25,-2.5,136
30,-2.5,130
35,-2.5,125
40,-2.5,119
45,-2.5,107
50,-2.5,91
55,-2.5,74
60,-2.5,62
65,-2.5,51
70,-2.5,47
75,-2.5,46
80,-2.5,47
85,-2.5,50
90,-2.5,53
95,-2.5,57
100,-2.5,61
105,-2.5,63
110,-2.5,60
115,-2.5,56
120,-2.5,51
125,-2.5,47
130,-2.5,45
135,-2.5,47
140,-2.5,51
145,-2.5,60
150,-2.5,72
155,-2.5,86
160,-2.5,101
165,-2.5,118
170,-2.5,136
175,-2.5,156
180,-2.5,176
-180,-5,173
-175,-5,196
-170,-5,217
-165,-5,233
-160,-5,243
-155,-5,247
-150,-5,246
-145,-5,245
-140,-5,244
-135,-5,244
-130,-5,244
-125,-5,244
-120,-5,243
-115,-5,243
-110,-5,241
-105,-5,234
-100,-5,220
-95,-5,205
-90,-5,193
-85,-5,188
-80,-5,193
-75,-5,202
-70,-5,213
-65,-5,229
-60,-5,245
-55,-5,256
-50,-5,265
-45,-5,268
-40,-5,264
-35,-5,252
-30,-5,234
-25,-5,210
-20,-5,188
-15,-5,172
-10,-5,164
-5,-5,160
0,-5,158
5,-5,155
10,-5,151
15,-5,145
20,-5,136
25,-5,127
30,-5,121
35,-5,118
40,-5,115
45,-5,106
50,-5,93
55,-5,77
60,-5,66
65,-5,54
70,-5,49
75,-5,47
80,-5,48
85,-5,49
90,-5,52
95,-5,56
100,-5,58
105,-5,59
110,-5,58
115,-5,54
120,-5,50
125,-5,46
130,-5,45
135,-5,46
140,-5,52
145,-5,62
150,-5,74
155,-5,86
160,-5,100
165,-5,115
170,-5,133
175,-5,153
180,-5,173
-180,-7.5,169
-175,-7.5,192
-170,-7.5,216
-165,-7.5,238
-160,-7.5,255
-155,-7.5,262
-150,-7.5,264
-145,-7.5,262
-140,-7.5,259
-135,-7.5,258
-130,-7.5,254
-125,-7.5,250
-120,-7.5,247
-115,-7.5,247
-110,-7.5,246
-105,-7.5,241
-100,-7.5,232
-95,-7.5,220
-90,-7.5,210
-85,-7.5,204
-80,-7.5,208
-75,-7.5,216
-70,-7.5,228
-65,-7.5,242
-60,-7.5,256
-55,-7.5,266
-50,-7.5,273
-45,-7.5,276
-40,-7.5,271
-35,-7.5,259
-30,-7.5,240
-25,-7.5,216
-20,-7.5,193
-15,-7.5,176
-10,-7.5,166
-5,-7.5,160
0,-7.5,155
5,-7.5,149
10,-7.5,143
15,-7.5,134
20,-7.5,125
25,-7.5,116
30,-7.5,112
35,-7.5,111
40,-7.5,110
45,-7.5,105
50,-7.5,95
55,-7.5,81
60,-7.5,69
65,-7.5,58
70,-7.5,51
75,-7.5,48
80,-7.5,47
85,-7.5,48
90,-7.5,51
95,-7.5,54
100,-7.5,55
105,-7.5,54
110,-7.5,52
115,-7.5,50
120,-7.5,47
125,-7.5,45
130,-7.5,44
135,-7.5,46
140,-7.5,52
145,-7.5,63
150,-7.5,75
155,-7.5,86
160,-7.5,97
165,-7.5,111
170,-7.5,129
175,-7.5,148
180,-7.5,169
-180,-10,162
-175,-10,185
-170,-10,209
-165,-10,236
-160,-10,259
-155,-10,273
-150,-10,280
-145,-10,281
-140,-10,280
-135,-10,277
-130,-10,271
-125,-10,264
-120,-10,258
-115,-10,256
-110,-10,254
-105,-10,249
-100,-10,242
-95,-10,232
-90,-10,223
-85,-10,219
-80,-10,222
-75,-10,229
-70,-10,239
-65,-10,251
-60,-10,263
-55,-10,273
-50,-10,280
-45,-10,281
-40,-10,276
-35,-10,264
-30,-10,244
-25,-10,219
-20,-10,195
-15,-10,176
-10,-10,163
-5,-10,154
0,-10,147
5,-10,138
10,-10,130
15,-10,121
20,-10,112
25,-10,105
30,-10,103
35,-10,104
40,-10,104
45,-10,103
50,-10,95
55,-10,83
60,-10,72
65,-10,60
70,-10,52
75,-10,47
80,-10,46
85,-10,47
90,-10,48
95,-10,50
100,-10,49
105,-10,48
110,-10,47
115,-10,46
120,-10,45
125,-10,44
130,-10,44
135,-10,46
140,-10,53
145,-10,64
150,-10,75
155,-10,85
160,-10,95
165,-10,108
170,-10,124
175,-10,142
180,-10,162
-180,-12.5,153
-175,-12.5,173
-170,-12.5,197
-165,-12.5,226
-160,-12.5,251
-155,-12.5,274
-150,-12.5,287
-145,-12.5,292
-140,-12.5,295
-135,-12.5,293
-130,-12.5,287
-125,-12.5,279
-120,-12.5,272
-115,-12.5,268
-110,-12.5,264
-105,-12.5,257
-100,-12.5,249
-95,-12.5,242
-90,-12.5,234
-85,-12.5,232
-80,-12.5,233
-75,-12.5,239
-70,-12.5,247
-65,-12.5,257
-60,-12.5,268
-55,-12.5,278
-50,-12.5,284
-45,-12.5,285
-40,-12.5,279
-35,-12.5,266
-30,-12.5,246
-25,-12.5,220
-20,-12.5,195
-15,-12.5,174
-10,-12.5,158
-5,-12.5,145
0,-12.5,135
5,-12.5,124
10,-12.5,115
15,-12.5,107
20,-12.5,100
25,-12.5,96
30,-12.5,96
35,-12.5,98
40,-12.5,99
45,-12.5,98
50,-12.5,94
55,-12.5,83
60,-12.5,74
65,-12.5,62
70,-12.5,53
75,-12.5,47
80,-12.5,45
85,-12.5,44
90,-12.5,44
95,-12.5,44
100,-12.5,43
105,-12.5,43
110,-12.5,43
115,-12.5,43
120,-12.5,43
125,-12.5,43
130,-12.5,44
135,-12.5,47
140,-12.5,54
145,-12.5,64
150,-12.5,75
155,-12.5,85
160,-12.5,94
165,-12.5,105
170,-12.5,119
175,-12.5,136
180,-12.5,153
-180,-15,143
-175,-15,160
-170,-15,180
-165,-15,206
-160,-15,235
-155,-15,261
-150,-15,280
-145,-15,292
-140,-15,298
-135,-15,300
-130,-15,297
-125,-15,289
-120,-15,282
-115,-15,276
-110,-15,269
-105,-15,261
-100,-15,252
-95,-15,245
-90,-15,241
-85,-15,239
-80,-15,241
-75,-15,245
-70,-15,251
-65,-15,259
-60,-15,269
-55,-15,278
-50,-15,284
-45,-15,284
-40,-15,278
-35,-15,266
-30,-15,244
-25,-15,218
-20,-15,193
-15,-15,171
-10,-15,152
-5,-15,136
0,-15,122
5,-15,110
10,-15,102
15,-15,96
20,-15,92
25,-15,90
30,-15,92
35,-15,94
40,-15,94
45,-15,93
50,-15,89
55,-15,81
60,-15,73
65,-15,62
70,-15,53
75,-15,46
80,-15,43
85,-15,41
90,-15,39
95,-15,39
100,-15,39
105,-15,39
110,-15,41
115,-15,42
120,-15,43
125,-15,45
130,-15,47
135,-15,50
140,-15,57
145,-15,66
150,-15,76
155,-15,85
160,-15,93
165,-15,103
170,-15,116
175,-15,129
180,-15,143
-180,-17.5,134
-175,-17.5,146
-170,-17.5,162
-165,-17.5,183
-160,-17.5,210
-155,-17.5,234
-150,-17.5,257
-145,-17.5,274
-140,-17.5,286
-135,-17.5,291
-130,-17.5,292
-125,-17.5,287
-120,-17.5,282
-115,-17.5,275
-110,-17.5,267
-105,-17.5,258
-100,-17.5,249
-95,-17.5,243
-90,-17.5,240
-85,-17.5,239
-80,-17.5,241
-75,-17.5,244
-70,-17.5,248
-65,-17.5,256
-60,-17.5,266
-55,-17.5,275
-50,-17.5,279
-45,-17.5,278
-40,-17.5,271
-35,-17.5,259
-30,-17.5,239
-25,-17.5,214
-20,-17.5,190
-15,-17.5,169
-10,-17.5,148
-5,-17.5,129
0,-17.5,112
5,-17.5,99
10,-17.5,92
15,-17.5,89
20,-17.5,87
25,-17.5,87
30,-17.5,89
35,-17.5,90
40,-17.5,88
45,-17.5,86
50,-17.5,82
55,-17.5,75
60,-17.5,68
65,-17.5,58
70,-17.5,50
75,-17.5,44
80,-17.5,40
85,-17.5,38
90,-17.5,36
95,-17.5,36
100,-17.5,37
105,-17.5,39
110,-17.5,42
115,-17.5,44
120,-17.5,46
125,-17.5,49
130,-17.5,51
135,-17.5,54
140,-17.5,60
145,-17.5,68
150,-17.5,77
155,-17.5,85
160,-17.5,93
165,-17.5,102
170,-17.5,113
175,-17.5,123
180,-17.5,134
-180,-20,128
-175,-20,136
-170,-20,146
-165,-20,162
-160,-20,182
-155,-20,204
-150,-20,225
-145,-20,243
-140,-20,257
-135,-20,265
-130,-20,270
-125,-20,271
-120,-20,269
-115,-20,264
-110,-20,256
-105,-20,246
-100,-20,238
-95,-20,233
-90,-20,233
-85,-20,233
-80,-20,235
-75,-20,238
-70,-20,243
-65,-20,250
-60,-20,259
-55,-20,267
-50,-20,270
-45,-20,268
-40,-20,260
-35,-20,248
-30,-20,230
-25,-20,209
-20,-20,188
-15,-20,166
-10,-20,145
-5,-20,124
0,-20,105
5,-20,92
10,-20,85
15,-20,83
20,-20,83
25,-20,84
30,-20,86
35,-20,85
40,-20,82
45,-20,79
50,-20,74
55,-20,67
60,-20,62
65,-20,54
70,-20,48
75,-20,42
80,-20,39
85,-20,36
90,-20,35
95,-20,36
100,-20,38
105,-20,41
110,-20,45
115,-20,48
120,-20,51
125,-20,54
130,-20,56
135,-20,59
140,-20,64
145,-20,71
150,-20,79
155,-20,86
160,-20,93
165,-20,102
170,-20,111
175,-20,120
180,-20,128
-180,-22.5,126
-175,-22.5,130
-170,-22.5,136
-165,-22.5,145
-160,-22.5,158
-155,-22.5,174
-150,-22.5,191
-145,-22.5,206
-140,-22.5,219
-135,-22.5,229
-130,-22.5,238
-125,-22.5,242
-120,-22.5,243
-115,-22.5,240
-110,-22.5,234
-105,-22.5,226
-100,-22.5,220
-95,-22.5,218
-90,-22.5,220
-85,-22.5,222
-80,-22.5,225
-75,-22.5,229
-70,-22.5,235
-65,-22.5,242
-60,-22.5,251
-55,-22.5,258
-50,-22.5,258
-45,-22.5,254
-40,-22.5,246
-35,-22.5,234
-30,-22.5,218
-25,-22.5,199
-20,-22.5,181
-15,-22.5,161
-10,-22.5,141
-5,-22.5,120
0,-22.5,101
5,-22.5,87
10,-22.5,80
15,-22.5,78
20,-22.5,79
25,-22.5,81
30,-22.5,82
35,-22.5,80
40,-22.5,77
45,-22.5,72
50,-22.5,66
55,-22.5,60
60,-22.5,56
65,-22.5,51
70,-22.5,46
75,-22.5,42
80,-22.5,39
85,-22.5,37
90,-22.5,37
95,-22.5,38
100,-22.5,41
105,-22.5,43
110,-22.5,47
115,-22.5,51
120,-22.5,54
125,-22.5,58
130,-22.5,61
135,-22.5,64
140,-22.5,68
145,-22.5,73
150,-22.5,81
155,-22.5,87
160,-22.5,94
165,-22.5,103
170,-22.5,112
175,-22.5,120
180,-22.5,126
-180,-25,126
-175,-25,129
-170,-25,131
-165,-25,134
-160,-25,141
-155,-25,149
-150,-25,161
-145,-25,171
-140,-25,181
-135,-25,190
-130,-25,201
-125,-25,207
-120,-25,209
-115,-25,210
-110,-25,207
-105,-25,201
-100,-25,198
-95,-25,199
-90,-25,204
-85,-25,209
-80,-25,214
-75,-25,218
-70,-25,225
-65,-25,234
-60,-25,242
-55,-25,246
-50,-25,245
-45,-25,238
-40,-25,227
-35,-25,215
-30,-25,203
-25,-25,187
-20,-25,171
-15,-25,154
-10,-25,136
-5,-25,117
0,-25,99
5,-25,85
10,-25,78
15,-25,76
20,-25,77
25,-25,79
30,-25,79
35,-25,77
40,-25,72
45,-25,66
50,-25,60
55,-25,54
60,-25,51
65,-25,48
70,-25,45
75,-25,42
80,-25,41
85,-25,39
90,-25,39
95,-25,41
100,-25,44
105,-25,46
110,-25,50
115,-25,53
120,-25,56
125,-25,60
130,-25,64
135,-25,68
140,-25,71
145,-25,76
150,-25,82
155,-25,88
160,-25,96
165,-25,105
170,-25,114
175,-25,121
180,-25,126
-180,-27.5,127
-175,-27.5,129
-170,-27.5,129
-165,-27.5,128
-160,-27.5,129
-155,-27.5,134
-150,-27.5,139
-145,-27.5,143
-140,-27.5,148
-135,-27.5,156
-130,-27.5,166
-125,-27.5,173
-120,-27.5,177
-115,-27.5,179
-110,-27.5,178
-105,-27.5,177
-100,-27.5,177
-95,-27.5,181
-90,-27.5,188
-85,-27.5,195
-80,-27.5,202
-75,-27.5,207
-70,-27.5,216
-65,-27.5,224
-60,-27.5,231
-55,-27.5,233
-50,-27.5,229
-45,-27.5,220
-40,-27.5,207
-35,-27.5,194
-30,-27.5,183
-25,-27.5,171
-20,-27.5,157
-15,-27.5,144
-10,-27.5,129
-5,-27.5,113
0,-27.5,98
5,-27.5,85
10,-27.5,78
15,-27.5,75
20,-27.5,75
25,-27.5,75
30,-27.5,75
35,-27.5,73
40,-27.5,68
45,-27.5,61
50,-27.5,55
55,-27.5,50
60,-27.5,49
65,-27.5,48
70,-27.5,47
75,-27.5,45
80,-27.5,44
85,-27.5,42
90,-27.5,43
95,-27.5,44
100,-27.5,46
105,-27.5,48
110,-27.5,50
115,-27.5,52
120,-27.5,55
125,-27.5,60
130,-27.5,65
135,-27.5,69
140,-27.5,73
145,-27.5,77
150,-27.5,82
155,-27.5,89
160,-27.5,98
165,-27.5,106
170,-27.5,115
175,-27.5,122
180,-27.5,127
-180,-30,128
-175,-30,131
-170,-30,131
-165,-30,128
-160,-30,125
-155,-30,125
-150,-30,125
-145,-30,125
-140,-30,126
-135,-30,131
-130,-30,138
-125,-30,146
-120,-30,151
-115,-30,153
-110,-30,154
-105,-30,156
-100,-30,159
-95,-30,165
-90,-30,174
-85,-30,182
-80,-30,189
-75,-30,196
-70,-30,205
-65,-30,212
-60,-30,218
-55,-30,219
-50,-30,212
-45,-30,200
-40,-30,189
-35,-30,176
-30,-30,165
-25,-30,155
-20,-30,144
-15,-30,134
-10,-30,121
-5,-30,109
0,-30,96
5,-30,85
10,-30,78
15,-30,73
20,-30,71
25,-30,71
30,-30,70
35,-30,67
40,-30,63
45,-30,57
50,-30,53
55,-30,51
60,-30,51
65,-30,51
70,-30,51
75,-30,50
80,-30,48
85,-30,46
90,-30,45
95,-30,45
100,-30,47
105,-30,48
110,-30,48
115,-30,49
120,-30,51
125,-30,57
130,-30,63
135,-30,67
140,-30,71
145,-30,76
150,-30,82
155,-30,89
160,-30,98
165,-30,106
170,-30,114
175,-30,122
180,-30,128
-180,-32.5,126
-175,-32.5,130
-170,-32.5,132
-165,-32.5,129
-160,-32.5,126
-155,-32.5,123
-150,-32.5,120
-145,-32.5,116
-140,-32.5,115
-135,-32.5,118
-130,-32.5,123
-125,-32.5,128
-120,-32.5,133
-115,-32.5,136
-110,-32.5,137
-105,-32.5,140
-100,-32.5,146
-95,-32.5,152
-90,-32.5,162
-85,-32.5,170
-80,-32.5,177
-75,-32.5,184
-70,-32.5,192
-65,-32.5,199
-60,-32.5,203
-55,-32.5,201
-50,-32.5,194
-45,-32.5,182
-40,-32.5,170
-35,-32.5,159
-30,-32.5,149
-25,-32.5,140
-20,-32.5,132
-15,-32.5,123
-10,-32.5,114
-5,-32.5,105
0,-32.5,94
5,-32.5,84
10,-32.5,76
15,-32.5,69
20,-32.5,65
25,-32.5,63
30,-32.5,62
35,-32.5,61
40,-32.5,59
45,-32.5,56
50,-32.5,54
55,-32.5,54
60,-32.5,55
65,-32.5,56
70,-32.5,56
75,-32.5,54
80,-32.5,51
85,-32.5,48
90,-32.5,47
95,-32.5,45
100,-32.5,45
105,-32.5,44
110,-32.5,42
115,-32.5,43
120,-32.5,46
125,-32.5,51
130,-32.5,57
135,-32.5,61
140,-32.5,66
145,-32.5,72
150,-32.5,79
155,-32.5,87
160,-32.5,95
165,-32.5,103
170,-32.5,111
175,-32.5,119
180,-32.5,126
-180,-35,121
-175,-35,127
-170,-35,130
-165,-35,129
-160,-35,127
-155,-35,124
-150,-35,120
-145,-35,115
-140,-35,113
-135,-35,114
-130,-35,116
-125,-35,120
-120,-35,123
-115,-35,126
-110,-35,128
-105,-35,132
-100,-35,137
-95,-35,144
-90,-35,152
-85,-35,160
-80,-35,166
-75,-35,171
-70,-35,178
-65,-35,183
-60,-35,186
-55,-35,184
-50,-35,176
-45,-35,165
-40,-35,154
-35,-35,144
-30,-35,135
-25,-35,128
-20,-35,122
-15,-35,115
-10,-35,107
-5,-35,99
0,-35,90
5,-35,81
10,-35,72
15,-35,64
20,-35,60
25,-35,57
30,-35,57
35,-35,58
40,-35,59
45,-35,58
50,-35,59
55,-35,60
60,-35,61
65,-35,61
70,-35,60
75,-35,57
80,-35,53
85,-35,49
90,-35,46
95,-35,43
100,-35,41
105,-35,38
110,-35,35
115,-35,34
120,-35,36
125,-35,42
130,-35,49
135,-35,53
140,-35,58
145,-35,65
150,-35,73
155,-35,82
160,-35,90
165,-35,98
170,-35,105
175,-35,114
180,-35,121
-180,-37.5,113
-175,-37.5,119
-170,-37.5,125
-165,-37.5,126
-160,-37.5,126
-155,-37.5,124
-150,-37.5,122
-145,-37.5,118
-140,-37.5,116
-135,-37.5,116
-130,-37.5,117
-125,-37.5,120
-120,-37.5,122
-115,-37.5,123
-110,-37.5,126
-105,-37.5,129
-100,-37.5,133
-95,-37.5,138
-90,-37.5,144
-85,-37.5,150
-80,-37.5,155
-75,-37.5,159
-70,-37.5,163
-65,-37.5,167
-60,-37.5,168
-55,-37.5,166
-50,-37.5,159
-45,-37.5,150
-40,-37.5,140
-35,-37.5,132
-30,-37.5,125
-25,-37.5,120
-20,-37.5,114
-15,-37.5,108
-10,-37.5,101
-5,-37.5,94
0,-37.5,86
5,-37.5,79
10,-37.5,69
15,-37.5,61
20,-37.5,55
25,-37.5,53
30,-37.5,55
35,-37.5,57
40,-37.5,60
45,-37.5,62
50,-37.5,64
55,-37.5,65
60,-37.5,65
65,-37.5,65
70,-37.5,62
75,-37.5,58
80,-37.5,53
85,-37.5,48
90,-37.5,44
95,-37.5,41
100,-37.5,37
105,-37.5,32
110,-37.5,29
115,-37.5,27
120,-37.5,28
125,-37.5,33
130,-37.5,38
135,-37.5,44
140,-37.5,50
145,-37.5,56
150,-37.5,65
155,-37.5,73
160,-37.5,83
165,-37.5,91
170,-37.5,98
175,-37.5,105
180,-37.5,113
-180,-40,102
-175,-40,109
-170,-40,115
-165,-40,119
-160,-40,122
-155,-40,122
-150,-40,122
-145,-40,120
-140,-40,120
-135,-40,119
-130,-40,121
-125,-40,123
-120,-40,124
-115,-40,126
-110,-40,127
-105,-40,129
-100,-40,132
-95,-40,135
-90,-40,139
-85,-40,143
-80,-40,145
-75,-40,147
-70,-40,150
-65,-40,151
-60,-40,152
-55,-40,150
-50,-40,144
-45,-40,137
-40,-40,129
-35,-40,124
-30,-40,119
-25,-40,114
-20,-40,109
-15,-40,103
-10,-40,96
-5,-40,90
0,-40,83
5,-40,75
10,-40,67
15,-40,59
20,-40,53
25,-40,52
30,-40,54
35,-40,58
40,-40,62
45,-40,65
50,-40,67
55,-40,68
60,-40,67
65,-40,65
70,-40,62
75,-40,56
80,-40,50
85,-40,45
90,-40,40
95,-40,37
100,-40,33
105,-40,28
110,-40,24
115,-40,22
120,-40,22
125,-40,26
130,-40,31
135,-40,36
140,-40,42
145,-40,48
150,-40,57
155,-40,66
160,-40,73
165,-40,81
170,-40,88
175,-40,95
180,-40,102
-180,-42.5,92
-175,-42.5,98
-170,-42.5,104
-165,-42.5,110
-160,-42.5,114
-155,-42.5,117
-150,-42.5,118
-145,-42.5,119
-140,-42.5,121
-135,-42.5,123
-130,-42.5,124
-125,-42.5,126
-120,-42.5,128
-115,-42.5,128
-110,-42.5,129
-105,-42.5,130
-100,-42.5,132
-95,-42.5,134
-90,-42.5,135
-85,-42.5,137
-80,-42.5,138
-75,-42.5,137
-70,-42.5,137
-65,-42.5,137
-60,-42.5,137
-55,-42.5,135
-50,-42.5,132
-45,-42.5,127
-40,-42.5,122
-35,-42.5,117
-30,-42.5,114
-25,-42.5,110
-20,-42.5,105
-15,-42.5,99
-10,-42.5,94
-5,-42.5,88
0,-42.5,81
5,-42.5,75
10,-42.5,67
15,-42.5,60
20,-42.5,56
25,-42.5,55
30,-42.5,57
35,-42.5,60
40,-42.5,64
45,-42.5,66
50,-42.5,67
55,-42.5,67
60,-42.5,65
65,-42.5,62
70,-42.5,58
75,-42.5,52
80,-42.5,46
85,-42.5,41
90,-42.5,37
95,-42.5,33
100,-42.5,29
105,-42.5,25
110,-42.5,22
115,-42.5,20
120,-42.5,21
125,-42.5,24
130,-42.5,28
135,-42.5,32
140,-42.5,36
145,-42.5,42
150,-42.5,50
155,-42.5,58
160,-42.5,65
165,-42.5,73
170,-42.5,78
175,-42.5,85
180,-42.5,92
-180,-45,82
-175,-45,88
-170,-45,94
-165,-45,98
-160,-45,104
-155,-45,108
-150,-45,111
-145,-45,114
-140,-45,118
-135,-45,121
-130,-45,124
-125,-45,126
-120,-45,128
-115,-45,129
-110,-45,129
-105,-45,129
-100,-45,130
-95,-45,131
-90,-45,132
-85,-45,132
-80,-45,131
-75,-45,129
-70,-45,127
-65,-45,126
-60,-45,124
-55,-45,123
-50,-45,120
-45,-45,118
-40,-45,115
-35,-45,113
-30,-45,111
-25,-45,108
-20,-45,104
-15,-45,99
-10,-45,93
-5,-45,88
0,-45,82
5,-45,77
10,-45,71
15,-45,65
20,-45,61
25,-45,59
30,-45,59
35,-45,62
40,-45,64
45,-45,65
50,-45,65
55,-45,63
60,-45,60
65,-45,57
70,-45,53
75,-45,48
80,-45,42
85,-45,38
90,-45,34
95,-45,31
100,-45,29
105,-45,25
110,-45,23
115,-45,23
120,-45,24
125,-45,26
130,-45,29
135,-45,32
140,-45,35
145,-45,39
150,-45,45
155,-45,51
160,-45,58
165,-45,65
170,-45,71
175,-45,76
180,-45,82
-180,-47.5,76
-175,-47.5,80
-170,-47.5,84
-165,-47.5,88
-160,-47.5,93
-155,-47.5,97
-150,-47.5,102
-145,-47.5,106
-140,-47.5,110
-135,-47.5,114
-130,-47.5,119
-125,-47.5,122
-120,-47.5,123
-115,-47.5,124
-110,-47.5,124
-105,-47.5,124
-100,-47.5,125
-95,-47.5,125
-90,-47.5,126
-85,-47.5,126
-80,-47.5,124
-75,-47.5,121
-70,-47.5,118
-65,-47.5,116
-60,-47.5,114
-55,-47.5,113
-50,-47.5,111
-45,-47.5,110
-40,-47.5,109
-35,-47.5,108
-30,-47.5,108
-25,-47.5,106
-20,-47.5,103
-15,-47.5,99
-10,-47.5,94
-5,-47.5,90
0,-47.5,86
5,-47.5,81
10,-47.5,76
15,-47.5,71
20,-47.5,67
25,-47.5,64
30,-47.5,62
35,-47.5,62
40,-47.5,62
45,-47.5,62
50,-47.5,60
55,-47.5,57
60,-47.5,54
65,-47.5,51
70,-47.5,47
75,-47.5,43
80,-47.5,40
85,-47.5,36
90,-47.5,34
95,-47.5,31
100,-47.5,30
105,-47.5,28
110,-47.5,28
115,-47.5,29
120,-47.5,30
125,-47.5,32
130,-47.5,34
135,-47.5,36
140,-47.5,37
145,-47.5,39
150,-47.5,43
155,-47.5,48
160,-47.5,54
165,-47.5,61
170,-47.5,66
175,-47.5,71
180,-47.5,76
-180,-50,72
-175,-50,75
-170,-50,77
-165,-50,80
-160,-50,83
-155,-50,87
-150,-50,91
-145,-50,95
-140,-50,100
-135,-50,105
-130,-50,109
-125,-50,112
-120,-50,114
-115,-50,115
-110,-50,115
-105,-50,116
-100,-50,116
-95,-50,117
-90,-50,117
-85,-50,117
-80,-50,115
-75,-50,112
-70,-50,109
-65,-50,106
-60,-50,105
-55,-50,104
-50,-50,103
-45,-50,103
-40,-50,103
-35,-50,104
-30,-50,105
-25,-50,104
-20,-50,102
-15,-50,99
-10,-50,96
-5,-50,93
0,-50,91
5,-50,87
10,-50,82
15,-50,78
20,-50,73
25,-50,69
30,-50,66
35,-50,63
40,-50,60
45,-50,57
50,-50,54
55,-50,51
60,-50,48
65,-50,46
70,-50,43
75,-50,41
80,-50,39
85,-50,37
90,-50,35
95,-50,33
100,-50,33
105,-50,33
110,-50,35
115,-50,36
120,-50,39
125,-50,41
130,-50,42
135,-50,42
140,-50,42
145,-50,43
150,-50,45
155,-50,49
160,-50,53
165,-50,59
170,-50,65
175,-50,69
180,-50,72
-180,-52.5,71
-175,-52.5,72
-170,-52.5,74
-165,-52.5,75
-160,-52.5,77
-155,-52.5,79
-150,-52.5,82
-145,-52.5,86
-140,-52.5,90
-135,-52.5,94
-130,-52.5,98
-125,-52.5,100
-120,-52.5,101
-115,-52.5,103
-110,-52.5,103
-105,-52.5,104
-100,-52.5,104
-95,-52.5,106
-90,-52.5,106
-85,-52.5,106
-80,-52.5,105
-75,-52.5,102
-70,-52.5,100
-65,-52.5,97
-60,-52.5,96
-55,-52.5,95
-50,-52.5,95
-45,-52.5,96
-40,-52.5,97
-35,-52.5,99
-30,-52.5,100
-25,-52.5,102
-20,-52.5,102
-15,-52.5,100
-10,-52.5,98
-5,-52.5,97
0,-52.5,95
5,-52.5,92
10,-52.5,89
15,-52.5,84
20,-52.5,79
25,-52.5,74
30,-52.5,68
35,-52.5,62
40,-52.5,57
45,-52.5,53
50,-52.5,49
55,-52.5,46
60,-52.5,44
65,-52.5,43
70,-52.5,42
75,-52.5,41
80,-52.5,40
85,-52.5,39
90,-52.5,37
95,-52.5,37
100,-52.5,38
105,-52.5,39
110,-52.5,42
115,-52.5,44
120,-52.5,47
125,-52.5,49
130,-52.5,50
135,-52.5,50
140,-52.5,49
145,-52.5,48
150,-52.5,49
155,-52.5,51
160,-52.5,55
165,-52.5,59
170,-52.5,64
175,-52.5,68
180,-52.5,71
-180,-55,70
-175,-55,71
-170,-55,72
-165,-55,73
-160,-55,74
-155,-55,75
-150,-55,77
-145,-55,79
-140,-55,82
-135,-55,84
-130,-55,86
-125,-55,88
-120,-55,89
-115,-55,90
-110,-55,91
-105,-55,91
-100,-55,92
-95,-55,93
-90,-55,94
-85,-55,95
-80,-55,95
-75,-55,93
-70,-55,92
-65,-55,90
-60,-55,88
-55,-55,88
-50,-55,88
-45,-55,90
-40,-55,92
-35,-55,94
-30,-55,96
-25,-55,99
-20,-55,100
-15,-55,101
-10,-55,101
-5,-55,101
0,-55,99
5,-55,97
10,-55,93
15,-55,88
20,-55,82
25,-55,76
30,-55,69
35,-55,61
40,-55,55
45,-55,50
50,-55,46
55,-55,44
60,-55,42
65,-55,43
70,-55,43
75,-55,44
80,-55,43
85,-55,42
90,-55,41
95,-55,41
100,-55,42
105,-55,44
110,-55,47
115,-55,51
120,-55,54
125,-55,56
130,-55,57
135,-55,57
140,-55,55
145,-55,54
150,-55,54
155,-55,55
160,-55,57
165,-55,60
170,-55,64
175,-55,68
180,-55,70
-180,-57.5,70
-175,-57.5,72
-170,-57.5,73
-165,-57.5,74
-160,-57.5,74
-155,-57.5,74
-150,-57.5,75
-145,-57.5,76
-140,-57.5,77
-135,-57.5,78
-130,-57.5,78
-125,-57.5,78
-120,-57.5,79
-115,-57.5,78
-110,-57.5,79
-105,-57.5,79
-100,-57.5,80
-95,-57.5,82
-90,-57.5,83
-85,-57.5,85
-80,-57.5,86
-75,-57.5,85
-70,-57.5,84
-65,-57.5,83
-60,-57.5,82
-55,-57.5,81
-50,-57.5,82
-45,-57.5,84
-40,-57.5,87
-35,-57.5,90
-30,-57.5,93
-25,-57.5,97
-20,-57.5,99
-15,-57.5,101
-10,-57.5,102
-5,-57.5,102
0,-57.5,102
5,-57.5,99
10,-57.5,95
15,-57.5,89
20,-57.5,82
25,-57.5,76
30,-57.5,67
35,-57.5,59
40,-57.5,52
45,-57.5,47
50,-57.5,44
55,-57.5,43
60,-57.5,43
65,-57.5,45
70,-57.5,47
75,-57.5,47
80,-57.5,47
85,-57.5,46
90,-57.5,45
95,-57.5,45
100,-57.5,45
105,-57.5,47
110,-57.5,50
115,-57.5,54
120,-57.5,58
125,-57.5,60
130,-57.5,61
135,-57.5,62
140,-57.5,60
145,-57.5,59
150,-57.5,58
155,-57.5,58
160,-57.5,59
165,-57.5,61
170,-57.5,65
175,-57.5,68
180,-57.5,70
-180,-60,71
-175,-60,74
-170,-60,75
-165,-60,76
-160,-60,77
-155,-60,77
-150,-60,77
-145,-60,78
-140,-60,77
-135,-60,76
-130,-60,76
-125,-60,74
-120,-60,72
-115,-60,71
-110,-60,70
-105,-60,70
-100,-60,71
-95,-60,72
-90,-60,74
-85,-60,76
-80,-60,77
-75,-60,77
-70,-60,77
-65,-60,77
-60,-60,77
-55,-60,77
-50,-60,78
-45,-60,80
-40,-60,84
-35,-60,87
-30,-60,91
-25,-60,94
-20,-60,98
-15,-60,100
-10,-60,102
-5,-60,102
0,-60,101
5,-60,99
10,-60,94
15,-60,88
20,-60,80
25,-60,72
30,-60,64
35,-60,55
40,-60,49
45,-60,45
50,-60,43
55,-60,43
60,-60,45
65,-60,47
70,-60,50
75,-60,51
80,-60,51
85,-60,50
90,-60,48
95,-60,47
100,-60,47
105,-60,48
110,-60,51
115,-60,55
120,-60,58
125,-60,61
130,-60,63
135,-60,63
140,-60,63
145,-60,62
150,-60,61
155,-60,59
160,-60,60
165,-60,62
170,-60,65
175,-60,68
180,-60,71
-180,-62.5,72
-175,-62.5,76
-170,-62.5,78
-165,-62.5,80
-160,-62.5,82
-155,-62.5,83
-150,-62.5,83
-145,-62.5,83
-140,-62.5,82
-135,-62.5,80
-130,-62.5,77
-125,-62.5,74
-120,-62.5,71
-115,-62.5,68
-110,-62.5,66
-105,-62.5,65
-100,-62.5,64
-95,-62.5,66
-90,-62.5,67
-85,-62.5,69
-80,-62.5,69
-75,-62.5,71
-70,-62.5,71
-65,-62.5,71
-60,-62.5,72
-55,-62.5,73
-50,-62.5,75
-45,-62.5,78
-40,-62.5,81
-35,-62.5,84
-30,-62.5,88
-25,-62.5,92
-20,-62.5,96
-15,-62.5,98
-10,-62.5,100
-5,-62.5,100
0,-62.5,98
5,-62.5,95
10,-62.5,90
15,-62.5,83
20,-62.5,75
25,-62.5,67
30,-62.5,59
35,-62.5,52
40,-62.5,46
45,-62.5,43
50,-62.5,43
55,-62.5,44
60,-62.5,47
65,-62.5,50
70,-62.5,52
75,-62.5,53
80,-62.5,54
85,-62.5,52
90,-62.5,50
95,-62.5,49
100,-62.5,49
105,-62.5,49
110,-62.5,51
115,-62.5,54
120,-62.5,57
125,-62.5,60
130,-62.5,61
135,-62.5,62
140,-62.5,63
145,-62.5,62
150,-62.5,61
155,-62.5,60
160,-62.5,61
165,-62.5,63
170,-62.5,65
175,-62.5,69
180,-62.5,72
-180,-65,74
-175,-65,78
-170,-65,81
-165,-65,84
-160,-65,87
-155,-65,90
-150,-65,91
-145,-65,91
-140,-65,89
-135,-65,86
-130,-65,83
-125,-65,78
-120,-65,74
-115,-65,70
-110,-65,66
-105,-65,64
-100,-65,62
-95,-65,61
-90,-65,62
-85,-65,63
-80,-65,64
-75,-65,65
-70,-65,66
-65,-65,67
-60,-65,68
-55,-65,70
-50,-65,72
-45,-65,75
-40,-65,78
-35,-65,82
-30,-65,86
-25,-65,90
-20,-65,93
-15,-65,96
-10,-65,97
-5,-65,96
0,-65,94
5,-65,90
10,-65,84
15,-65,77
20,-65,70
25,-65,61
30,-65,54
35,-65,48
40,-65,44
45,-65,42
50,-65,43
55,-65,44
60,-65,48
65,-65,51
70,-65,53
75,-65,54
80,-65,55
85,-65,54
90,-65,52
95,-65,50
100,-65,49
105,-65,49
110,-65,50
115,-65,52
120,-65,54
125,-65,57
130,-65,59
135,-65,60
140,-65,62
145,-65,62
150,-65,61
155,-65,61
160,-65,61
165,-65,63
170,-65,66
175,-65,70
180,-65,74
-180,-67.5,77
-175,-67.5,81
-170,-67.5,85
-165,-67.5,89
-160,-67.5,93
-155,-67.5,97
-150,-67.5,99
-145,-67.5,100
-140,-67.5,98
-135,-67.5,95
-130,-67.5,90
-125,-67.5,86
-120,-67.5,81
-115,-67.5,76
-110,-67.5,71
-105,-67.5,67
-100,-67.5,64
-95,-67.5,63
-90,-67.5,62
-85,-67.5,62
-80,-67.5,62
-75,-67.5,63
-70,-67.5,64
-65,-67.5,65
-60,-67.5,66
-55,-67.5,68
-50,-67.5,71
-45,-67.5,73
-40,-67.5,77
-35,-67.5,80
-30,-67.5,84
-25,-67.5,87
-20,-67.5,90
-15,-67.5,92
-10,-67.5,92
-5,-67.5,91
0,-67.5,89
5,-67.5,85
10,-67.5,79
15,-67.5,72
20,-67.5,64
25,-67.5,56
30,-67.5,49
35,-67.5,44
40,-67.5,42
45,-67.5,41
50,-67.5,42
55,-67.5,44
60,-67.5,47
65,-67.5,50
70,-67.5,52
75,-67.5,54
80,-67.5,55
85,-67.5,54
90,-67.5,53
95,-67.5,50
100,-67.5,49
105,-67.5,49
110,-67.5,49
115,-67.5,51
120,-67.5,53
125,-67.5,55
130,-67.5,57
135,-67.5,59
140,-67.5,60
145,-67.5,61
150,-67.5,61
155,-67.5,61
160,-67.5,62
165,-67.5,64
170,-67.5,67
175,-67.5,72
180,-67.5,77
-180,-70,80
-175,-70,85
-170,-70,90
-165,-70,94
-160,-70,100
-155,-70,104
-150,-70,106
-145,-70,107
-140,-70,106
-135,-70,103
-130,-70,99
-125,-70,94
-120,-70,89
-115,-70,83
-110,-70,78
-105,-70,74
-100,-70,71
-95,-70,68
-90,-70,66
-85,-70,65
-80,-70,65
-75,-70,64
-70,-70,65
-65,-70,66
-60,-70,68
-55,-70,69
-50,-70,72
-45,-70,74
-40,-70,77
-35,-70,80
-30,-70,83
-25,-70,86
-20,-70,88
-15,-70,89
-10,-70,88
-5,-70,87
0,-70,83
5,-70,79
10,-70,73
15,-70,68
20,-70,60
25,-70,53
30,-70,46
35,-70,42
40,-70,40
45,-70,40
50,-70,41
55,-70,44
60,-70,46
65,-70,48
70,-70,50
75,-70,52
80,-70,53
85,-70,54
90,-70,53
95,-70,52
100,-70,50
105,-70,50
110,-70,50
115,-70,51
120,-70,53
125,-70,55
130,-70,56
135,-70,58
140,-70,59
145,-70,60
150,-70,61
155,-70,63
160,-70,65
165,-70,66
170,-70,71
175,-70,75
180,-70,80
-180,-72.5,86
-175,-72.5,91
-170,-72.5,96
-165,-72.5,100
-160,-72.5,105
-155,-72.5,109
-150,-72.5,111
-145,-72.5,113
-140,-72.5,112
-135,-72.5,110
-130,-72.5,106
-125,-72.5,102
-120,-72.5,97
-115,-72.5,91
-110,-72.5,87
-105,-72.5,82
-100,-72.5,78
-95,-72.5,75
-90,-72.5,73
-85,-72.5,71
-80,-72.5,70
-75,-72.5,69
-70,-72.5,69
-65,-72.5,70
-60,-72.5,71
-55,-72.5,73
-50,-72.5,75
-45,-72.5,76
-40,-72.5,78
-35,-72.5,81
-30,-72.5,83
-25,-72.5,84
-20,-72.5,86
-15,-72.5,86
-10,-72.5,84
-5,-72.5,82
0,-72.5,78
5,-72.5,74
10,-72.5,68
15,-72.5,63
20,-72.5,57
25,-72.5,51
30,-72.5,45
35,-72.5,41
40,-72.5,40
45,-72.5,40
50,-72.5,42
55,-72.5,43
60,-72.5,45
65,-72.5,47
70,-72.5,49
75,-72.5,50
80,-72.5,52
85,-72.5,53
90,-72.5,53
95,-72.5,53
100,-72.5,52
105,-72.5,51
110,-72.5,52
115,-72.5,53
120,-72.5,55
125,-72.5,56
130,-72.5,57
135,-72.5,59
140,-72.5,60
145,-72.5,62
150,-72.5,64
155,-72.5,66
160,-72.5,69
165,-72.5,71
170,-72.5,75
175,-72.5,80
180,-72.5,86
-180,-75,93
-175,-75,97
-170,-75,101
-165,-75,106
-160,-75,109
-155,-75,112
-150,-75,114
-145,-75,115
-140,-75,115
-135,-75,113
-130,-75,111
-125,-75,108
-120,-75,104
-115,-75,99
-110,-75,94
-105,-75,91
-100,-75,87
-95,-75,83
-90,-75,80
-85,-75,78
-80,-75,76
-75,-75,76
-70,-75,75
-65,-75,75
-60,-75,76
-55,-75,77
-50,-75,78
-45,-75,79
-40,-75,81
-35,-75,82
-30,-75,83
-25,-75,84
-20,-75,83
-15,-75,82
-10,-75,81
-5,-75,78
0,-75,75
5,-75,69
10,-75,65
15,-75,59
20,-75,56
25,-75,51
30,-75,46
35,-75,43
40,-75,41
45,-75,42
50,-75,43
55,-75,44
60,-75,46
65,-75,47
70,-75,48
75,-75,50
80,-75,50
85,-75,51
90,-75,54
95,-75,55
100,-75,56
105,-75,55
110,-75,56
115,-75,56
120,-75,57
125,-75,58
130,-75,60
135,-75,62
140,-75,63
145,-75,65
150,-75,69
155,-75,71
160,-75,73
165,-75,77
170,-75,82
175,-75,88
180,-75,93
-180,-77.5,97
-175,-77.5,101
-170,-77.5,105
-165,-77.5,108
-160,-77.5,111
-155,-77.5,114
-150,-77.5,115
-145,-77.5,116
-140,-77.5,115
-135,-77.5,115
-130,-77.5,113
-125,-77.5,111
-120,-77.5,109
-115,-77.5,104
-110,-77.5,100
-105,-77.5,97
-100,-77.5,94
-95,-77.5,89
-90,-77.5,87
-85,-77.5,84
-80,-77.5,83
-75,-77.5,82
-70,-77.5,81
-65,-77.5,81
-60,-77.5,81
-55,-77.5,81
-50,-77.5,82
-45,-77.5,82
-40,-77.5,82
-35,-77.5,83
-30,-77.5,83
-25,-77.5,82
-20,-77.5,82
-15,-77.5,80
-10,-77.5,78
-5,-77.5,76
0,-77.5,72
5,-77.5,68
10,-77.5,63
15,-77.5,59
20,-77.5,55
25,-77.5,51
30,-77.5,49
35,-77.5,47
40,-77.5,45
45,-77.5,45
50,-77.5,46
55,-77.5,47
60,-77.5,48
65,-77.5,49
70,-77.5,50
75,-77.5,51
80,-77.5,51
85,-77.5,53
90,-77.5,54
95,-77.5,56
100,-77.5,59
105,-77.5,60
110,-77.5,61
115,-77.5,60
120,-77.5,61
125,-77.5,62
130,-77.5,64
135,-77.5,66
140,-77.5,68
145,-77.5,70
150,-77.5,72
155,-77.5,75
160,-77.5,78
165,-77.5,83
170,-77.5,88
175,-77.5,92
180,-77.5,97
-180,-80,99
-175,-80,103
-170,-80,105
-165,-80,108
-160,-80,110
-155,-80,112
-150,-80,113
-145,-80,114
-140,-80,114
-135,-80,114
-130,-80,113
-125,-80,110
-120,-80,108
-115,-80,105
-110,-80,102
-105,-80,100
-100,-80,97
-95,-80,94
-90,-80,92
-85,-80,90
-80,-80,88
-75,-80,87
-70,-80,86
-65,-80,86
-60,-80,85
-55,-80,85
-50,-80,85
-45,-80,84
-40,-80,84
-35,-80,83
-30,-80,82
-25,-80,81
-20,-80,80
-15,-80,79
-10,-80,77
-5,-80,74
0,-80,71
5,-80,68
10,-80,65
15,-80,61
20,-80,58
25,-80,55
30,-80,53
35,-80,52
40,-80,52
45,-80,51
50,-80,51
55,-80,52
60,-80,52
65,-80,54
70,-80,55
75,-80,56
80,-80,57
85,-80,58
90,-80,58
95,-80,60
100,-80,62
105,-80,63
110,-80,64
115,-80,66
120,-80,67
125,-80,69
130,-80,71
135,-80,73
140,-80,75
145,-80,77
150,-80,79
155,-80,82
160,-80,85
165,-80,88
170,-80,92
175,-80,95
180,-80,99
-180,-82.5,99
-175,-82.5,102
-170,-82.5,104
-165,-82.5,105
-160,-82.5,107
-155,-82.5,107
-150,-82.5,108
-145,-82.5,108
-140,-82.5,109
-135,-82.5,109
-130,-82.5,107
-125,-82.5,106
-120,-82.5,105
-115,-82.5,104
-110,-82.5,102
-105,-82.5,100
-100,-82.5,99
-95,-82.5,97
-90,-82.5,95
-85,-82.5,94
-80,-82.5,92
-75,-82.5,91
-70,-82.5,90
-65,-82.5,89
-60,-82.5,88
-55,-82.5,88
-50,-82.5,87
-45,-82.5,86
-40,-82.5,85
-35,-82.5,84
-30,-82.5,83
-25,-82.5,81
-20,-82.5,80
-15,-82.5,78
-10,-82.5,77
-5,-82.5,75
0,-82.5,73
5,-82.5,71
10,-82.5,69
15,-82.5,67
20,-82.5,65
25,-82.5,63
30,-82.5,61
35,-82.5,60
40,-82.5,59
45,-82.5,58
50,-82.5,58
55,-82.5,58
60,-82.5,58
65,-82.5,59
70,-82.5,61
75,-82.5,62
80,-82.5,63
85,-82.5,64
90,-82.5,65
95,-82.5,66
100,-82.5,68
105,-82.5,69
110,-82.5,69
115,-82.5,71
120,-82.5,73
125,-82.5,75
130,-82.5,76
135,-82.5,77
140,-82.5,79
145,-82.5,82
150,-82.5,84
155,-82.5,86
160,-82.5,88
165,-82.5,92
170,-82.5,94
175,-82.5,97
180,-82.5,99
-180,-85,95
-175,-85,96
-170,-85,97
-165,-85,99
-160,-85,100
-155,-85,100
-150,-85,101
-145,-85,102
-140,-85,102
-135,-85,102
-130,-85,102
-125,-85,101
-120,-85,101
-115,-85,100
-110,-85,99
-105,-85,98
-100,-85,97
-95,-85,96
-90,-85,96
-85,-85,94
-80,-85,94
-75,-85,92
-70,-85,92
-65,-85,91
-60,-85,90
-55,-85,88
-50,-85,87
-45,-85,86
-40,-85,85
-35,-85,84
-30,-85,83
-25,-85,82
-20,-85,81
-15,-85,80
-10,-85,79
-5,-85,78
0,-85,76
5,-85,75
10,-85,74
15,-85,73
20,-85,72
25,-85,72
30,-85,72
35,-85,71
40,-85,70
45,-85,70
50,-85,70
55,-85,70
60,-85,70
65,-85,70
70,-85,70
75,-85,70
80,-85,71
85,-85,72
90,-85,72
95,-85,73
100,-85,73
105,-85,74
110,-85,75
115,-85,76
120,-85,78
125,-85,79
130,-85,81
135,-85,82
140,-85,83
145,-85,84
150,-85,86
155,-85,87
160,-85,89
165,-85,91
170,-85,92
175,-85,94
180,-85,95
-180,-87.5,91
-175,-87.5,92
-170,-87.5,92
-165,-87.5,93
-160,-87.5,93
-155,-87.5,94
-150,-87.5,94
-145,-87.5,94
-140,-87.5,94
-135,-87.5,94
-130,-87.5,94
-125,-87.5,94
-120,-87.5,94
-115,-87.5,94
-110,-87.5,94
-105,-87.5,94
-100,-87.5,93
-95,-87.5,93
-90,-87.5,92
-85,-87.5,92
-80,-87.5,91
-75,-87.5,90
-70,-87.5,90
-65,-87.5,89
-60,-87.5,88
-55,-87.5,88
-50,-87.5,87
-45,-87.5,86
-40,-87.5,85
-35,-87.5,85
-30,-87.5,84
-25,-87.5,83
-20,-87.5,82
-15,-87.5,82
-10,-87.5,81
-5,-87.5,81
0,-87.5,80
5,-87.5,80
10,-87.5,79
15,-87.5,79
20,-87.5,79
25,-87.5,78
30,-87.5,78
35,-87.5,77
40,-87.5,77
45,-87.5,77
50,-87.5,77
55,-87.5,77
60,-87.5,77
65,-87.5,77
70,-87.5,78
75,-87.5,78
80,-87.5,78
85,-87.5,78
90,-87.5,79
95,-87.5,79
100,-87.5,80
105,-87.5,80
110,-87.5,81
115,-87.5,82
120,-87.5,82
125,-87.5,83
130,-87.5,83
135,-87.5,85
140,-87.5,85
145,-87.5,86
150,-87.5,87
155,-87.5,87
160,-87.5,89
165,-87.5,89
170,-87.5,90
175,-87.5,91
180,-87.5,91
